AEDFXA1EN018;ADES;"ADES International Holding PLC";USD;;;UK;LSE;LSE
AT0000A00Y78;O2C;"Petro Welt Technologies AG";EUR;;;Germany;XETRA;XETRA
AT0000A0E9W5;SANT;"S&T AG";EUR;;;Germany;XETRA;XETRA
AT0000A18XM4;AMS;"ams AG";CHF;;;Switzerland;SW;SW
AT0000A21KS2;IIA;"IMMOFINANZ AG";EUR;;;Austria;VI;VI
AU000000CCP3;CCP;"Credit Corp Group Limited";AUD;;;Australia;AU;AU
AU000000S320;S32;"South32 Limited";AUD;;;Australia;AU;AU
AU000000SIG5;SIG;"Sigma Healthcare Limited";AUD;;;Australia;AU;AU
BMG4209G2077;GKP;"Gulf Keystone Petroleum Limited";GBX;;;UK;LSE;LSE
BMG4593F1389;HSX;"Hiscox Ltd";GBX;;;UK;LSE;LSE
BMG5361W1047;LRE;"Lancashire Holdings Limited";GBX;;;UK;LSE;LSE
BMG6359F1032;NBR;"Nabors Industries Ltd";USD;;;USA;US;US
USG6359F1033;NBR;"Nabors Industries Ltd";USD;;;USA;US;US
BMG6359F1370;NBR-PA;"Nabors Industries Ltd";USD;;;USA;US;US
BMG702781094;PDL;"Petra Diamonds Limited";GBX;;;UK;LSE;LSE
BMG702781094;PDL;"Petra Diamonds Limited";GBX;;;UK;LSE;LSE
BMG702781250;FPO;"Petra Diamonds Limited";EUR;;;Germany;F;F
BMG702781250;FPO;"Petra Diamonds Limited";EUR;;;Germany;STU;STU
BMG702781250;PDMDF;"Petra Diamonds Limited";USD;;;USA;US;US
BMG7300G1096;PURE;"PureCircle Limited";GBP;;;UK;LSE;LSE
CA3012831077;EIF;"Exchange Income Corporation";CAD;;;Canada;TO;TO
CA30224T8639;EXE;"Extendicare Inc";CAD;;;Canada;TO;TO
CA64079L1058;NEPT;"Neptune Wellness Solutions Inc";CAD;;;Canada;TO;TO
US85208J1097;FUND;"Sprott Focus Trust, Inc";USD;;;USA;US;US
CA86084H1001;RAY-A;"Stingray Group Inc";CAD;;;Canada;TO;TO
CA89346D1078;TA;"TransAlta Corporation";CAD;;;Canada;TO;TO
CH0011432447;BSLN;"Basilea Pharmaceutica AG";CHF;;;Switzerland;SW;SW
CH0012684657;BOBNN;"Bobst Group SA";CHF;;;Switzerland;SW;SW
CH0023405456;DUFN;"Dufry AG";CHF;;;Switzerland;SW;SW
CH0023405456;DUFN;"Dufry AG";CHF;;;Switzerland;VX;VX
CH0025751329;LOGN;"Logitech International S.A";CHF;;;Switzerland;SW;SW
CH0033361673;UBXN;"u-blox Holding AG";CHF;;;Switzerland;SW;SW
CH0038389992;BION;"BB Biotech AG";CHF;;;Switzerland;SW;SW
CH0042615283;ROSE;"Zur Rose Group AG";CHF;;;Switzerland;SW;SW
CH0132594711;LMI;"LION E-Mobility AG";EUR;;;Germany;XETRA;XETRA
CH0198251305;CCH;"Coca-Cola HBC AG";GBX;;;UK;LSE;LSE
CH0363463438;IDIA;"Idorsia Ltd";CHF;;;Switzerland;SW;SW
CH0371153492;LAND;"Landis+Gyr Group AG";CHF;;;Switzerland;SW;SW
DE000A2GS401;SOW;"Software Aktiengesellschaft";EUR;;;Germany;XETRA;XETRA
DE000A2GS401;SOW;"Software Aktiengesellschaft";EUR;;;Germany;F;F
DE0003304002;STWRY;"Software Aktiengesellschaft";USD;;;USA;US;US
DE0003304002;SWDAF;"Software Aktiengesellschaft";USD;;;USA;US;US
DE0005008007;ADL;"ADLER Real Estate AG";EUR;;;Germany;XETRA;XETRA
DE000A1X3W00;MDG1;"Medigene AG";EUR;;;Germany;XETRA;XETRA
DE0005020903;MDGEF;"Medigene AG";USD;;;USA;US;US
DE0005089031;UTDI;"United Internet AG";EUR;;;Germany;XETRA;XETRA
DE0005089031;UTDI;"United Internet AG";EUR;;;Germany;F;F
DE000A1X3XX4;DIC;"DIC Asset AG";EUR;;;Germany;XETRA;XETRA
DE0005098404;DIC;"DIC Asset AG";EUR;;;Germany;F;F
DE0005103006;ADV;"ADVA Optical Networking SE";EUR;;;Germany;XETRA;XETRA
DE0005108401;SRWRF;"SolarWorld Aktiengesellschaft";USD;;;USA;US;US
DE0005111702;ZO1;"zooplus AG";EUR;;;Germany;XETRA;XETRA
DE0005111702;ZO1;"zooplus AG";EUR;;;Germany;F;F
DE0005137004;QSC;"QSC AG";EUR;;;Germany;XETRA;XETRA
DE0005140008;DBK;"Deutsche Bank Aktiengesellschaft";EUR;;;Germany;XETRA;XETRA
DE0005146807;DEX;"Delticom AG";EUR;;;Germany;XETRA;XETRA
DE0005158703;BC8;"Bechtle AG";EUR;;;Germany;XETRA;XETRA
DE0005168108;B5A;"BAUER Aktiengesellschaft";EUR;;;Germany;XETRA;XETRA
DE0005190003;BMW;"Bayerische Motoren Werke Aktiengesellschaft";EUR;;;Germany;XETRA;XETRA
DE0005190003;BMW;"Bayerische Motoren Werke Aktiengesellschaft";EUR;;;Germany;F;F
DE0005194062;BYW6;"BayWa Aktiengesellschaft";EUR;;;Germany;XETRA;XETRA
DE0005200000;BEI;"Beiersdorf Aktiengesellschaft";EUR;;;Germany;XETRA;XETRA
DE0005215107;BALOF;"Clere AG";USD;;;USA;US;US
DE0005227235;BIO3;"Biotest Aktiengesellschaft";EUR;;;Germany;XETRA;XETRA
DE0005232805;BDT;"Bertrandt Aktiengesellschaft";EUR;;;Germany;XETRA;XETRA
DE0005232805;BDT;"Bertrandt Aktiengesellschaft";EUR;;;Germany;F;F
DE0005313704;AFX;"Carl Zeiss Meditec AG";EUR;;;Germany;XETRA;XETRA
DE0005407506;CEV;"Centrotec SE";EUR;;;Germany;XETRA;XETRA
DE0005408116;ARL;"Aareal Bank AG";EUR;;;Germany;XETRA;XETRA
DE0005408884;LEO;"LEONI AG";EUR;;;Germany;XETRA;XETRA
DE0005408884;LEO;"LEONI AG";EUR;;;Germany;F;F
DE0005419105;COK;"Cancom SE";EUR;;;Germany;XETRA;XETRA
DE0005439004;CON;"Continental Aktiengesellschaft";EUR;;;Germany;XETRA;XETRA
DE0005470306;EVD;"CTS Eventim AG & Co. KGaA";EUR;;;Germany;XETRA;XETRA
DE0005470405;LXS;"LANXESS Aktiengesellschaft";EUR;;;Germany;XETRA;XETRA
DE0005488100;ISR;"Isra Vision AG";EUR;;;Germany;XETRA;XETRA
DE0005493092;BVB;"Borussia Dortmund GmbH & Co. Kommanditgesellschaft auf Aktien";EUR;;;Germany;XETRA;XETRA
DE0005493365;HYQ;"Hypoport SE";EUR;;;Germany;XETRA;XETRA
DE0005493365;HYQ;"Hypoport SE";EUR;;;Germany;F;F
DE0005501357;SPR;"Axel Springer SE";EUR;;;Germany;HM;HM
DE0005501357;AXELF;"Axel Springer SE";USD;;;USA;US;US
DE0005501357;AXSPY;"Axel Springer SE";USD;;;USA;US;US
DE000A1TNUT7;DBAN;"Deutsche Beteiligungs AG";EUR;;;Germany;XETRA;XETRA
DE0005508105;DBAN;"Deutsche Beteiligungs AG Ord";EUR;;;Germany;STU;STU
DE0005508105;DEUBF;"Deutsche Beteiligungs AG Ord";USD;;;USA;US;US
DE0005545503;DRI;"1&1 Drillisch AG";EUR;;;Germany;XETRA;XETRA
DE0005545503;DRI;"1&1 Drillisch AG";EUR;;;Germany;F;F
DE0005550636;DRW3;"Drägerwerk AG & Co. KGaA";EUR;;;Germany;XETRA;XETRA
DE0005550602;DRW8;"Drägerwerk AG & Co. KGaA";EUR;;;Germany;XETRA;XETRA
DE0005550636;DRW3;"Drägerwerk AG & Co. KGaA";EUR;;;Germany;F;F
DE0005550602;DRW8;"Drägerwerk AG & Co. KGaA";EUR;;;Germany;F;F
DE0005550602;DWRKF;"Drägerwerk AG & Co. KGaA";USD;;;USA;US;US
DE0005550602;DGWPF;"Drägerwerk AG & Co. KGaA";USD;;;USA;US;US
DE0005550602;DRWKF;"Drägerwerk AG & Co. KGaA";USD;;;USA;US;US
DE0005550636;DRW3;"Drägerwerk AG & Co. KGaA";EUR;;;Germany;XETRA;XETRA
DE0005550636;DRW3;"Drägerwerk AG & Co. KGaA";EUR;;;Germany;F;F
DE0005552004;DPW;"Deutsche Post AG";EUR;;;Germany;XETRA;XETRA
DE0005557508;DTE;"Deutsche Telekom AG";EUR;;;Germany;XETRA;XETRA
DE0005557508;DTE;"Deutsche Telekom AG";EUR;;;Germany;F;F
DE0005558662;QCE;"Global PVQ SE";EUR;;;Germany;HM;HM
DE0005558696;PGN;"paragon GmbH & Co. KGaA";EUR;;;Germany;XETRA;XETRA
DE0005565204;DUE;"Dürr Aktiengesellschaft";EUR;;;Germany;XETRA;XETRA
DE0005659700;EUZ;"Eckert & Ziegler Strahlen- und Medizintechnik AG";EUR;;;Germany;XETRA;XETRA
DE0005664809;EVT;"Evotec SE";EUR;;;Germany;XETRA;XETRA
DE0005772206;FIE;"Fielmann Aktiengesellschaft";EUR;;;Germany;XETRA;XETRA
DE0005772206;FIE;"Fielmann Aktiengesellschaft";EUR;;;Germany;F;F
DE0005773303;FRA;"Fraport AG";EUR;;;Germany;XETRA;XETRA
DE0005785604;FRE;"Fresenius SE & Co. KGaA";EUR;;;Germany;XETRA;XETRA
DE0005785604;FRE;"Fresenius SE & Co. KGaA";EUR;;;Germany;F;F
DE0005785802;FME;"Fresenius Medical Care AG & Co. KGaA";EUR;;;Germany;XETRA;XETRA
DE0005790430;FPE3;"Fuchs Petrolub SE";EUR;;;Germany;XETRA;XETRA
DE0005800601;GFT;"GFT Technologies SE";EUR;;;Germany;XETRA;XETRA
DE0005810055;DB1;"Deutsche Börse AG";EUR;;;Germany;XETRA;XETRA
DE0005878003;GIL;"DMG MORI AKTIENGESELLSCHAFT";EUR;;;Germany;XETRA;XETRA
DE0005878003;GIL;"DMG MORI AKTIENGESELLSCHAFT";EUR;;;Germany;F;F
DE0005895403;GMM;"Grammer AG";EUR;;;Germany;XETRA;XETRA
DE0005895403;GMM;"Grammer AG";EUR;;;Germany;F;F
DE0005909006;GBF;"Bilfinger SE";EUR;;;Germany;XETRA;XETRA
DE0006013006;HAB;"Hamborner REIT AG";EUR;;;Germany;XETRA;XETRA
DE0006047004;HEI;"HeidelbergCement AG";EUR;;;Germany;XETRA;XETRA
DE0006047004;HEI;"HeidelbergCement AG";EUR;;;Germany;F;F
DE0006048432;HEN3;"Henkel AG & Co. KGaA";EUR;;;Germany;XETRA;XETRA
DE0006048408;HEN;"Henkel AG & Co. KGaA";EUR;;;Germany;XETRA;XETRA
DE0006048408;0IZ8;"Henkel AG & Co. KGaA";GBP;;;UK;LSE;LSE
DE0006048408;HENKY;"Henkel AG & Co. KGaA";USD;;;USA;US;US
DE0006048408;HENOY;"Henkel AG & Co. KGaA";USD;;;USA;US;US
DE0006048408;HEN;"Henkel AG & Co. KGaA";EUR;;;Germany;F;F
DE0006048408;HENOF;"Henkel AG & Co. KGaA";USD;;;USA;US;US
DE0006048408;HELKF;"Henkel AG & Co. KGaA";USD;;;USA;US;US
DE0006048408;HEN3;"Henkel AG & Co. KGaA";EUR;;;Italy;MI;MI
DE0006062144;1COV;"Covestro AG";EUR;;;Germany;XETRA;XETRA
DE0006070006;HOT;"HOCHTIEF Aktiengesellschaft";EUR;;;Germany;XETRA;XETRA
DE0006095003;CAP;"Encavis AG";EUR;;;Germany;XETRA;XETRA
DE0006095003;CAP;"Encavis AG";EUR;;;Germany;F;F
DE0006200108;INH;"INDUS Holding AG";EUR;;;Germany;XETRA;XETRA
DE0006200108;INH;"INDUS Holding AG";EUR;;;Germany;F;F
DE0006202005;SZG;"Salzgitter AG";EUR;;;Germany;XETRA;XETRA
DE0006202005;SZG;"Salzgitter AG";EUR;;;Germany;F;F
DE0006204407;KU2;"KUKA Aktiengesellschaft";EUR;;;Germany;XETRA;XETRA
DE0006204407;KU2;"KUKA Aktiengesellschaft";EUR;;;Germany;F;F
DE0006219934;JUN3;"Jungheinrich Aktiengesellschaft";EUR;;;Germany;XETRA;XETRA
DE0006231004;IFX;"Infineon Technologies AG";EUR;;;Germany;XETRA;XETRA
DE0006305006;DEZ;"DEUTZ Aktiengesellschaft";EUR;;;Germany;XETRA;XETRA
DE0006335003;KRN;"Krones AG";EUR;;;Germany;XETRA;XETRA
DE0006450000;LPK;"LPKF Laser & Electronics AG";EUR;;;Germany;XETRA;XETRA
DE0006452907;NEM;"Nemetschek SE";EUR;;;Germany;XETRA;XETRA
DE0006464506;LEI;"Leifheit Aktiengesellschaft";EUR;;;Germany;XETRA;XETRA
DE0006464506;LEI;"Leifheit Aktiengesellschaft";EUR;;;Germany;F;F
DE0006577109;NN6;"NanoRepro AG";EUR;;;Germany;XETRA;XETRA
DE0006599905;MRK;"MERCK Kommanditgesellschaft auf Aktien";EUR;;;Germany;XETRA;XETRA
DE0006602006;G1A;"GEA Group Aktiengesellschaft";EUR;;;Germany;XETRA;XETRA
DE0006602006;G1A;"GEA Group Aktiengesellschaft";EUR;;;Germany;F;F
DE0006632003;MOR;"MorphoSys AG";EUR;;;Germany;XETRA;XETRA
DE0006636681;VQT;"va-Q-tec AG";EUR;;;Germany;XETRA;XETRA
DE0006766504;NDA;"Aurubis AG";EUR;;;Germany;XETRA;XETRA
DE0006916604;PFV;"Pfeiffer Vacuum Technology AG";EUR;;;Germany;XETRA;XETRA
DE0006916604;PFV;"Pfeiffer Vacuum Technology AG";EUR;;;Germany;F;F
DE0006969603;PUM;"PUMA SE";EUR;;;Germany;XETRA;XETRA
DE0006969603;PUM;"PUMA SE";EUR;;;Germany;F;F
DE0006972508;PBY;"publity AG";EUR;;;Germany;XETRA;XETRA
DE0007010803;RAA;"RATIONAL Aktiengesellschaft";EUR;;;Germany;XETRA;XETRA
DE0007030009;RHM;"Rheinmetall AG";EUR;;;Germany;XETRA;XETRA
DE0007030009;RHM;"Rheinmetall AG";EUR;;;Germany;F;F
DE0007037129;RWE;"RWE Aktiengesellschaft";EUR;;;Germany;XETRA;XETRA
DE0007042301;RHK;"RHÖN-KLINIKUM Aktiengesellschaft";EUR;;;Germany;XETRA;XETRA
DE0007042301;RHK;"RHÖN-KLINIKUM Aktiengesellschaft";EUR;;;Germany;F;F
DE0007100000;DAI;"Daimler AG";EUR;;;Germany;XETRA;XETRA
DE0007164600;SAP;"SAP SE";EUR;;;Germany;XETRA;XETRA
DE0007164600;SAP;"SAP SE";EUR;;;Germany;F;F
DE0007165631;SRT3;"Sartorius Aktiengesellschaft";EUR;;;Germany;XETRA;XETRA
DE0007165607;SRT;"Sartorius Aktiengesellschaft";EUR;;;Germany;XETRA;XETRA
DE0007165607;SRT;"Sartorius Aktiengesellschaft";EUR;;;Germany;F;F
DE0007165607;SUVPF;"Sartorius Aktiengesellschaft";USD;;;USA;US;US
DE0007165607;SARTF;"Sartorius Aktiengesellschaft";USD;;;USA;US;US
DE0007165631;SRT3;"Sartorius Aktiengesellschaft";EUR;;;Germany;XETRA;XETRA
DE0007193500;SKB;"Koenig & Bauer AG";EUR;;;Germany;XETRA;XETRA
DE0007193500;SKB;"Koenig & Bauer AG";EUR;;;Germany;F;F
DE0007203705;SHF;"SNP Schneider-Neureither & Partner SE";EUR;;;Germany;XETRA;XETRA
DE0007231326;SIX2;"Sixt SE";EUR;;;Germany;XETRA;XETRA
DE0007231326;SIX2;"Sixt SE";EUR;;;Germany;F;F
DE0007235301;SGL;"SGL Carbon SE";EUR;;;Germany;XETRA;XETRA
DE0007236101;SIE;"Siemens Aktiengesellschaft";EUR;;;Germany;XETRA;XETRA
DE0007236101;SIN;"Siemens Aktiengesellschaft";CHF;;;Switzerland;SW;SW
DE0007236101;SIE;"Siemens Aktiengesellschaft";EUR;;;Germany;F;F
DE0007251803;SAZ;"STADA Arzneimittel Aktiengesellschaft";EUR;;;Germany;MU;MU
DE0007257503;CEC;"Lyxor MSCI Eastern Europe ex Russia UCITS ETF Acc";EUR;;;Germany;XETRA;XETRA
DE0007257503;CEC;"Ceconomy AG";EUR;;;Germany;F;F
DE0007297004;SZU;"Südzucker AG";EUR;;;Germany;XETRA;XETRA
DE0007297004;SZU;"Südzucker AG";EUR;;;Germany;F;F
DE0007314007;HDD;"Heidelberger Druckmaschinen Aktiengesellschaft";EUR;;;Germany;XETRA;XETRA
DE0007461006;TPE;"PVA TePla AG";EUR;;;Germany;XETRA;XETRA
DE0007472060;WDI;"Wirecard AG";EUR;;;Germany;XETRA;XETRA
DE0007480204;DEQ;"Deutsche EuroShop AG";EUR;;;Germany;XETRA;XETRA
DE0007493991;SAX;"Ströer SE & Co. KGaA";EUR;;;Germany;XETRA;XETRA
DE0007493991;SAX;"Ströer SE & Co. KGaA";EUR;;;Germany;F;F
DE0007500001;TKA;"thyssenkrupp AG";EUR;;;Germany;XETRA;XETRA
DE0007507501;WSU;"WashTec AG";EUR;;;Germany;XETRA;XETRA
DE0007664005;VOW;"Volkswagen AG";EUR;;;Germany;XETRA;XETRA
DE0007664039;VOW3;"Volkswagen AG";EUR;;;Germany;XETRA;XETRA
DE0007667107;VOS;"Vossloh AG";EUR;;;Germany;XETRA;XETRA
DE0007667107;VOS;"Vossloh AG";EUR;;;Germany;F;F
DE0007856023;ZIL2;"ElringKlinger AG";EUR;;;Germany;XETRA;XETRA
DE0007856023;ZIL2;"ElringKlinger AG";EUR;;;Germany;F;F
DE0008019001;PBB;"Deutsche Pfandbriefbank AG";EUR;;;Germany;XETRA;XETRA
DE0008232125;LHA;"Deutsche Lufthansa AG";EUR;;;Germany;XETRA;XETRA
DE0008303504;TEG;"TAG Immobilien AG";EUR;;;Germany;XETRA;XETRA
DE0008402215;HNR1;"Hannover Rück SE";EUR;;;Germany;XETRA;XETRA
DE0008402215;HNR1;"Hannover Rück SE";EUR;;;Germany;F;F
DE0008404005;ALV;"Allianz SE";EUR;;;Germany;XETRA;XETRA
DE0008430026;MUV2;"Münchener Rückversicherungs-Gesellschaft Aktiengesellschaft in München";EUR;;;Germany;XETRA;XETRA
DE0008430026;MUV2;"Münchener Rückversicherungs-Gesellschaft Aktiengesellschaft in München";EUR;;;Germany;F;F
DE000A0B65S3;PA8;"Paion AG";EUR;;;Germany;XETRA;XETRA
DE000A0D6554;NDX1;"Nordex SE";EUR;;;Germany;XETRA;XETRA
DE000A0D9PT0;MTX;"MULTI-UNITS LUXEMBOURG - Lyxor Euro Government Bond (DR) UCITS ETF - Acc";EUR;;;Germany;XETRA;XETRA
DE000A0DJ6J9;S92;"SMA Solar Technology AG";EUR;;;Germany;XETRA;XETRA
DE000A0DNAY5;ACX;"Bet-At-Home.com AG";EUR;;;Germany;XETRA;XETRA
DE000A0DPRE6;LNSX;"Sixt Leasing SE";EUR;;;Germany;XETRA;XETRA
DE000A0HN5C6;DWNI;"Deutsche Wohnen SE";EUR;;;Germany;XETRA;XETRA
DE000A0JBPG2;PNE3;"PNE AG";EUR;;;Germany;XETRA;XETRA
DE000A0JK2A8;AR4;"AURELIUS Equity Opportunities SE & Co. KGaA";EUR;;;Germany;XETRA;XETRA
DE000A0JQ5U3;M5Z;"Manz AG";EUR;;;Germany;XETRA;XETRA
DE000A0LD2U1;AOX;"alstria office REIT-AG";EUR;;;Germany;XETRA;XETRA
DE000A0LD6E6;GXI;"Gerresheimer AG";EUR;;;Germany;XETRA;XETRA
DE000A0LD6E6;GXI;"Gerresheimer AG";EUR;;;Germany;F;F
DE000A0Q4R02;EXH9;"iShares STOXX Europe 600 Utilities UCITS ETF (DE)";EUR;;;Germany;XETRA;XETRA
"DEUTSCHER KA";EXH9;"iShares STOXX Europe 600 Utilities UCITS ETF (DE)";EUR;;;Germany;XETRA;XETRA
DE000A0S8488;HHFA;"Hamburger Hafen und Logistik Aktiengesellschaft";EUR;;;Germany;XETRA;XETRA
DE000A0S8488;HHFA;"Hamburger Hafen und Logistik Aktiengesellschaft";EUR;;;Germany;F;F
DE000A0STST2;TTI;"Tom Tailor Holding SE";EUR;;;Germany;XETRA;XETRA
DE000A0TGJ55;VAR1;"Varta AG";EUR;;;Germany;XETRA;XETRA
DE000A0WMPJ6;AIXA;"AIXTRON SE";EUR;;;Germany;XETRA;XETRA
DE000A0WMPJ6;AIXA;"AIXTRON SE";EUR;;;Germany;F;F
DE000A0XYGA7;TTR1;"technotrans SE";EUR;;;Germany;XETRA;XETRA
DE000A0XYGA7;TTR1;"technotrans SE";EUR;;;Germany;F;F
DE000A0Z23G6;LOUD;"DEAG Deutsche Entertainment Aktiengesellschaft";EUR;;;Germany;XETRA;XETRA
DE000A0Z2XN6;RIB;"RIB Software SE";EUR;;;Germany;XETRA;XETRA
DE000A0Z2XN6;RIB;"RIB Software SE";EUR;;;Germany;F;F
DE000A0Z2ZZ5;FNTN;"freenet AG";EUR;;;Germany;XETRA;XETRA
DE000A0Z2ZZ5;FNTN;"freenet AG";EUR;;;Germany;F;F
DE000A111338;AM3D;"SLM Solutions Group AG";EUR;;;Germany;XETRA;XETRA
DE000A12B8Z4;TLG;"TLG Immobilien AG";EUR;;;Germany;XETRA;XETRA
DE000A12DM80;G24;"Scout24 AG";EUR;;;Germany;XETRA;XETRA
DE000A12UKK6;RKET;"Rocket Internet SE";EUR;;;Germany;XETRA;XETRA
DE000A12UPJ7;PAL;"Pantaflix AG";EUR;;;Germany;XETRA;XETRA
DE000A13SX22;HLE;"HELLA GmbH & Co. KGaA";EUR;;;Germany;XETRA;XETRA
DE000A161408;HFG;"HelloFresh SE";EUR;;;Germany;XETRA;XETRA
DE000A161N30;GLJ;"Grenke AG";EUR;;;Germany;XETRA;XETRA
DE000A1681X5;SNG;"Singulus Technologies AG";EUR;;;Germany;XETRA;XETRA
DE000A1681X5;SNG;"Singulus Technologies AG";EUR;;;Germany;F;F
DE000A1DAHH0;BNR;"Brenntag AG";EUR;;;Germany;XETRA;XETRA
DE000A1EWWW0;ADS;"adidas AG";EUR;;;Germany;XETRA;XETRA
DE000A1H8BV3;NOEJ;"NORMA Group SE";EUR;;;Germany;XETRA;XETRA
DE000A1H8BV3;NOEJ;"NORMA Group SE";EUR;;;Germany;F;F
DE000A1J5RX9;O2D;"Telefónica Deutschland Holding AG";EUR;;;Germany;XETRA;XETRA
DE000A1J5RX9;O2D;"Telefónica Deutschland Holding AG";EUR;;;Germany;F;F
DE000A1JBPV9;SW1;"SHW AG";EUR;;;Germany;XETRA;XETRA
DE000A1K0235;SMHN;"SÜSS MicroTec SE";EUR;;;Germany;XETRA;XETRA
DE000A1K0300;EUCA;"euromicron AG";EUR;;;Germany;"DEUTSCHE BOERSE AG";"DEUTSCHE BOERSE AG"
DE000A1ML7J1;VNA;"Vonovia SE";EUR;;;Germany;XETRA;XETRA
DE000A1PHBB5;RSL2;"R. STAHL AG";EUR;;;Germany;XETRA;XETRA
DE000A1PHBB5;RSL2;"R. STAHL AG";EUR;;;Germany;F;F
DE000A1PHFF7;BOSS;"Hugo Boss AG";EUR;;;Germany;XETRA;XETRA
DE000A1X3W00;MDG1;"Medigene AG";EUR;;;Germany;XETRA;XETRA
DE000A1X3X33;WCMK;"WCM Beteiligungs- und Grundbesitz-AG";EUR;;;Germany;XETRA;XETRA
DE000A1X3X33;WCMK;"WCM Beteiligungs- und Grundbesitz-AG";EUR;;;Germany;F;F
DE000A1X3XX4;DIC;"DIC Asset AG";EUR;;;Germany;XETRA;XETRA
DE000A1YCMM2;SRWRF;"SolarWorld Aktiengesellschaft";USD;;;USA;US;US
DE000A0Z2XN6;RIB;"RIB Software SE";EUR;;;Germany;XETRA;XETRA
DE000A0Z2XN6;RIB;"RIB Software SE";EUR;;;Germany;F;F
DE000A254260;RSTAY;"RIB Software SE";USD;;;USA;US;US
DE000A254260;RSTAF;"RIB Software SE";USD;;;USA;US;US
DE000A0WMPJ6;AIXA;"AIXTRON SE";EUR;;;Germany;XETRA;XETRA
DE000A0WMPJ6;AIXA;"AIXTRON SE";EUR;;;Germany;F;F
DE000A2BPYT0;AIXA;"Aixtron SE";EUR;;;Germany;HM;HM
DE000A2BPYT0;AIXXF;"AIXTRON SE";USD;;;USA;US;US
DE000A2DA414;CC1;"Amundi Index Solutions - Amundi MSCI China UCITS ETF-C EUR";EUR;;;Germany;XETRA;XETRA
DE000A2DAM03;AAG;"Aumann AG";EUR;;;Germany;XETRA;XETRA
DE000A2E4K43;DHER;"Delivery Hero SE";EUR;;;Germany;XETRA;XETRA
DE000A2E4LE9;VBX;"Voltabox AG";EUR;;;Germany;XETRA;XETRA
DE000A2E4SV8;CYR;"cyan AG";EUR;;;Germany;XETRA;XETRA
DE000A2GS401;SOW;"Software Aktiengesellschaft";EUR;;;Germany;XETRA;XETRA
DE000A2GS401;SOW;"Software Aktiengesellschaft";EUR;;;Germany;F;F
DE000LEG1110;LEG;"LEG Immobilien AG";EUR;;;Germany;XETRA;XETRA
DE000A2GSDH2;LEG;"LEG Immobilien AG";EUR;;;Germany;F;F
DE000A2GSDH2;LEGIF;"LEG Immobilien AG";USD;;;USA;US;US
DE000A2NBX80;INS;"Instone Real Estate Group AG";EUR;;;Germany;XETRA;XETRA
DE000A2YN900;TMV;"TeamViewer AG";EUR;;;Germany;XETRA;XETRA
DE000A2YN900;TMVWY;"TeamViewer AG";USD;;;USA;US;US
DE000A2YN900;TMVWF;"TeamViewer AG";USD;;;USA;US;US
DE000BASF111;BAS;"BASF SE";EUR;;;Germany;XETRA;XETRA
DE000BASF111;BAS;"BASF SE";EUR;;;Germany;F;F
DE000BASF111;BAS;"BASF SE";CHF;;;Switzerland;SW;SW
DE000BAY0017;BAYN;"Bayer Aktiengesellschaft";EUR;;;Germany;XETRA;XETRA
DE000BFB0019;B4B;"Metro AG";EUR;;;Germany;XETRA;XETRA
DE000CBK1001;CBK;"Commerzbank AG";EUR;;;Germany;XETRA;XETRA
DE000CLS1001;CLS1;"McKesson Europe AG";EUR;;;Germany;HM;HM
DE000ENAG999;EOAN;"E.ON SE";EUR;;;Germany;XETRA;XETRA
DE000EVNK013;EVK;"Evonik Industries AG";EUR;;;Germany;XETRA;XETRA
DE000FTG1111;FTK;"flatex AG";EUR;;;Germany;XETRA;XETRA
DE000JST4000;JST;"JOST Werke AG";EUR;;;Germany;XETRA;XETRA
DE000KBX1006;KBX;"Knorr Bremse AG";EUR;;;Germany;XETRA;XETRA
DE000KC01000;KCO;"Klöckner & Co SE";EUR;;;Germany;XETRA;XETRA
DE000KGX8881;KGX;"KION GROUP AG";EUR;;;Germany;XETRA;XETRA
DE000KSAG888;SDF;"K+S Aktiengesellschaft";EUR;;;Germany;XETRA;XETRA
DE000LED4000;OSR;"OSRAM Licht AG";EUR;;;Germany;XETRA;XETRA
DE000LED4000;OSR;"OSRAM Licht AG";EUR;;;Germany;F;F
DE000LEG1110;LEG;"LEG Immobilien AG";EUR;;;Germany;XETRA;XETRA
DE000LEG1110;LEG;"LEG Immobilien AG";EUR;;;Germany;XETRA;XETRA
DE000LEG1CB5;LEG;"LEG Immobilien AG";EUR;;;Germany;F;F
DE000LEG1CB5;LEGIF;"LEG Immobilien AG";USD;;;USA;US;US
DE000NWRK013;NWO;"New Work SE";EUR;;;Germany;XETRA;XETRA
DE000PAT1AG3;PAT;"Patrizia AG";EUR;;;Germany;XETRA;XETRA
DE000PSM7770;PSM;"ProSiebenSat.1 Media SE";EUR;;;Germany;XETRA;XETRA
DE000SHA0159;SHA;"Schaeffler AG";EUR;;;Germany;XETRA;XETRA
DE000STRA555;SBS;"Stratec SE";EUR;;;Germany;XETRA;XETRA
DE000STRA555;SBS;"Stratec SE";EUR;;;Germany;F;F
DE000SYM9999;SY1;"Symrise AG";EUR;;;Germany;XETRA;XETRA
DE000TCAG172;TC1;"Tele Columbus AG";EUR;;;Germany;XETRA;XETRA
DE000TLX1005;TLX;"Talanx AG";EUR;;;Germany;XETRA;XETRA
DE000TUAG000;TUI1;"TUI AG";EUR;;;Germany;XETRA;XETRA
DE000TUAG265;TUI;"TUI AG";GBX;;;UK;LSE;LSE
DE000TUAG000;TUI1;"TUI AG";EUR;;;Germany;XETRA;XETRA
DE000TUAG265;TUI1;"TUI AG";EUR;;;Germany;F;F
DE000TUAG265;TUIFY;"TUI AG";USD;;;USA;US;US
DE000TUAG265;TUIFF;"TUI AG";USD;;;USA;US;US
DE000UNSE018;UN01;"Uniper SE";EUR;;;Germany;XETRA;XETRA
DE000VTG9999;VT9;"VTG Aktiengesellschaft";EUR;;;Germany;HM;HM
DE000WACK012;WAC;"Wacker Neuson SE";EUR;;;Germany;XETRA;XETRA
DE000WACK012;WAC;"Wacker Neuson SE";EUR;;;Germany;F;F
DE000WAF3001;WAF;"Siltronic AG";EUR;;;Germany;XETRA;XETRA
DE000WCH8881;WCH;"Wacker Chemie AG";EUR;;;Germany;XETRA;XETRA
DE000ZAL1111;ZAL;"Zalando SE";EUR;;;Germany;XETRA;XETRA
ES0105022000;APPS;"Applus Services, S.A";EUR;;;Spain;MC;MC
ES0105025003;MRL;"MERLIN Properties SOCIMI, S.A";EUR;;;Spain;MC;MC
ES0105046009;AENA;"Aena S.M.E., S.A";EUR;;;Spain;MC;MC
ES0105065009;TLGO;"Talgo, S.A";EUR;;;Spain;MC;MC
ES0105066007;CLNX;"Cellnex Telecom, S.A";EUR;;;Spain;MC;MC
ES0105075008;EKT;"Euskaltel, S.A";EUR;;;Spain;MC;MC
ES0105630315;CIE;"CIE Automotive, S.A";EUR;;;Spain;MC;MC
ES0109067019;AMS;"Amadeus IT Group, S.A";EUR;;;Spain;MC;MC
ES0109260531;AMP;"Amper, S.A";EUR;;;Spain;MC;MC
ES0110047919;OLE;"Deoleo, S.A";EUR;;;Spain;MC;MC
ES0110944172;QBT;"Quabit Inmobiliaria, S.A";EUR;;;Spain;MC;MC
ES0113211835;BBVA;"Banco Bilbao Vizcaya Argentaria, S.A";EUR;;;Spain;MC;MC
US00709P1084;BBVA;"Banco Bilbao Vizcaya Argentaria, S.A";USD;;;USA;US;US
ES0113307062;BKIA;"Bankia, S.A";EUR;;;Spain;MC;MC
ES0113679I37;BKT;"Bankinter, S.A";EUR;;;Spain;MC;MC
ES0113860A34;SAB;"Banco de Sabadell, S.A";EUR;;;Spain;MC;MC
ES0114820113;VOC;"Vocento, S.A";EUR;;;Spain;MC;MC
ES0116870314;NTGY;"Naturgy Energy Group, S.A";EUR;;;Spain;MC;MC
ES0118594417;IDR;"Indra Sistemas, S.A";EUR;;;Spain;MC;MC
ES0118900010;FER;"Ferrovial, S.A";EUR;;;Spain;MC;MC
ES0122060314;FCC;"Fomento de Construcciones y Contratas, S.A";EUR;;;Spain;MC;MC
ES0124244E34;MAP;"Mapfre, S.A";EUR;;;Spain;MC;MC
ES0125140A14;ECR;"Ercros, S.A";EUR;;;Spain;MC;MC
ES0125220311;ANA;"Acciona, S.A";EUR;;;Spain;MC;MC
ES0132105018;ACX;"Acerinox, S.A";EUR;;;Spain;MC;MC
ES0132945017;TUB;"Tubacex, S.A";EUR;;;Spain;MC;MC
ES0139140174;COL;"Inmobiliaria Colonial, SOCIMI, S.A";EUR;;;Spain;MC;MC
ES0140609019;CABK;"CaixaBank, S.A";EUR;;;Spain;MC;MC
ES0143416115;SGRE;"Siemens Gamesa Renewable Energy, S.A";EUR;;;Spain;MC;MC
ES0144580Y14;IBE;"Iberdrola, S.A";EUR;;;Spain;MC;MC
US4507371015;IBDRY;"Iberdrola, S.A";USD;;;USA;US;US
US4507371015;IBDSF;"Iberdrola, S.A";USD;;;USA;US;US
ES0148396007;ITX;"Industria de Diseño Textil, S.A";EUR;;;Spain;MC;MC
ES0157097017;ALM;"Almirall, S.A";EUR;;;Spain;MC;MC
ES0157261019;ROVI;"Laboratorios Farmaceuticos Rovi, S.A";EUR;;;Spain;MC;MC
ES0168675090;LBK;"Liberbank, S.A";EUR;;;Spain;MC;MC
ES0169350016;PVA;"Pescanova, S.A";EUR;;;Spain;MC;MC
ES0169501030;PHM;"Pharma Mar, S.A";EUR;;;Spain;MC;MC
ES0171743901;PRS;"Promotora de Informaciones, S.A";EUR;;;Spain;MC;MC
ES0171996087;GRF;"Grifols, S.A";EUR;;;Spain;MC;MC
USE5706X1324;GRFS;"Grifols, S.A";USD;;;USA;US;US
ES0172233118;BIO;"Biosearch, S.A";EUR;;;Spain;MC;MC
ES0172708234;EZE;"Grupo Ezentis, S.A";EUR;;;Spain;MC;MC
ES0173516115;REP;"Repsol, S.A";EUR;;;Spain;MC;MC
US9842451000;REPYY;"Repsol, S.A";USD;;;USA;US;US
ES0173908015;RLIA;"Realia Business, S.A";EUR;;;Spain;MC;MC
ES0177542018;IAG;"International Consolidated Airlines Group, S.A";GBX;;;UK;LSE;LSE
ES0180850416;TRG;"Tubos Reunidos, S.A";EUR;;;Spain;MC;MC
ES0182870214;SCYR;"Sacyr, S.A";EUR;;;Spain;MC;MC
ES0184262212;VIS;"Viscofan, S.A";EUR;;;Spain;MC;MC
ES0184933812;ZOT;"Zardoya Otis, S.A";EUR;;;Spain;MC;MC
FI4000106299;FRU;"Ferratum Oyj";EUR;;;Germany;XETRA;XETRA
FR0011443266;MTF;"Mondo TV France Société Anonyme";EUR;;;Italy;MI;MI
GB0000059971;ANW;"Aberdeen New Thai Investment Trust Plc";GBX;;;UK;LSE;LSE
GB0000100767;AAS;"Aberdeen Standard Asia Focus PLC";GBX;;;UK;LSE;LSE
GB0000163088;SDY;"Speedy Hire Plc";GBX;;;UK;LSE;LSE
GB0000175058;BGSC;"BMO Global Smaller Companies PLC";GBX;;;UK;LSE;LSE
GB0000456144;ANTO;"Antofagasta plc";GBX;;;UK;LSE;LSE
GB0000536739;AHT;"Ashtead Group plc";GBX;;;UK;LSE;LSE
GB0000667013;AVON;"Avon Rubber p.l.c";GBX;;;UK;LSE;LSE
GB00BFXYH242;BGS;"Baillie Gifford Shin Nippon PLC";GBX;;;UK;LSE;LSE
GB0000706274;BGSHF;"Baillie Gifford Shin Nippon PLC";USD;;;USA;US;US
GB0000811801;BDEV;"Barratt Developments PLC";GBX;;;UK;LSE;LSE
GB0000904986;BWY;"Bellway p.l.c";GBX;;;UK;LSE;LSE
GB0000961622;BBY;"Balfour Beatty plc";GBX;;;UK;LSE;LSE
GB0001048619;TED;"Ted Baker Plc";GBX;;;UK;LSE;LSE
GB0001367019;BLND;"British Land Company Plc";GBX;;;UK;LSE;LSE
GB0001500809;TLW;"Tullow Oil plc";GBX;;;UK;LSE;LSE
GB0001528156;ISVJF;"Interserve Plc";USD;;;USA;US;US
GB0001570810;XAR;"Xaar plc";GBX;;;UK;LSE;LSE
GB0001638955;JDW;"J D Wetherspoon plc";GBX;;;UK;LSE;LSE
GB0001741544;CAL;"Capital & Regional Plc";GBX;;;UK;LSE;LSE
GB0001751915;CAR;"Carclo plc";GBX;;;UK;LSE;LSE
GB0001751915;C1Y;"Carclo plc";EUR;;;Germany;F;F
GB0001751915;CCEGF;"Carclo plc";USD;;;USA;US;US
GB0001765816;BRW;"Brewin Dolphin Holdings PLC";GBX;;;UK;LSE;LSE
GB0001771426;ACSO;"accesso Technology Group plc";GBX;;;UK;LSE;LSE
GB0001826634;DPLM;"Diploma PLC";GBX;;;UK;LSE;LSE
GB0001859296;BVS;"Vistry Group PLC";GBP;;;UK;LSE;LSE
GB0002015021;CTO;"TClarke plc";GBX;;;UK;LSE;LSE
GB0002018363;CKN;"Clarkson PLC";GBX;;;UK;LSE;LSE
GB0002074580;GNS;"Genus plc";GBX;;;UK;LSE;LSE
GB0002162385;AV;"Aviva plc";GBX;;;UK;LSE;LSE
GB0002259116;GHH;"Gooch & Housego PLC";GBX;;;UK;LSE;LSE
GB0002318888;CWK;"Cranswick plc";GBX;;;UK;LSE;LSE
GB0002405495;SDR;"Schroders plc";GBX;;;UK;LSE;LSE
GB0002418548;ELM;"Elementis plc";GBX;;;UK;LSE;LSE
GB0002652740;DLN;"Derwent London Plc";GBX;;;UK;LSE;LSE
GB0002668464;UAI;"U and I Group PLC";GBX;;;UK;LSE;LSE
GB0002670437;DVO;"Devro plc";GBX;;;UK;LSE;LSE
GB0002869419;BYG;"Big Yellow Group Plc";GBX;;;UK;LSE;LSE
GB0002875804;BATS;"British American Tobacco p.l.c";GBX;;;UK;LSE;LSE
GB0003052338;EDIN;"The Edinburgh Investment Trust plc";GBX;;;UK;LSE;LSE
GB0003085445;ELTA;"Electra Private Equity PLC";GBX;;;UK;LSE;LSE
GB0003096442;ECM;"Electrocomponents plc";GBX;;;UK;LSE;LSE
GB0003230421;EUA;"Eurasia Mining Plc";GBX;;;UK;LSE;LSE
GB0003308607;SXS;"Spectris plc";GBX;;;UK;LSE;LSE
GB0003395000;FSJ;"James Fisher and Sons plc";GBX;;;UK;LSE;LSE
GB0003452173;FGP;"FirstGroup plc";GBX;;;UK;LSE;LSE
GB0003753778;GOG;"The Go-Ahead Group plc";GBX;;;UK;LSE;LSE
GB0004052071;HLMA;"Halma plc";GBX;;;UK;LSE;LSE
GB0004065016;HMSO;"Hammerson plc";GBX;;;UK;LSE;LSE
GB0004082847;STAN;"Standard Chartered PLC";GBX;;;UK;LSE;LSE
GB0004082847;2888;"Standard Chartered PLC";HKD;;;"Hong Kong";HK;HK
GB0004161021;HAS;"Hays plc";GBX;;;UK;LSE;LSE
GB0004170089;HEAD;"Headlam Group plc";GBX;;;UK;LSE;LSE
GB0004270301;HILS;"Hill & Smith Holdings PLC";GBX;;;UK;LSE;LSE
GB0004281639;IOM;"iomart Group plc";GBX;;;UK;LSE;LSE
GB0004478896;HTG;"Hunting PLC";GBX;;;UK;LSE;LSE
GB0004526900;IGR;"IG Design Group plc";GBX;;;UK;LSE;LSE
GB0004536594;AMS;"Advanced Medical Solutions Group plc";GBX;;;UK;LSE;LSE
GB0004544929;IMB;"Imperial Brands PLC";GBX;;;UK;LSE;LSE
GB0004657408;MTO;"Mitie Group plc";GBX;;;UK;LSE;LSE
GB0004697420;JKX;"JKX Oil & Gas plc";GBX;;;UK;LSE;LSE
GB0004726096;SPT;"Spirent Communications plc";GBX;;;UK;LSE;LSE
GB0004762810;JSG;"Johnson Service Group PLC";GBX;;;UK;LSE;LSE
GB0004866223;KLR;"Keller Group plc";GBX;;;UK;LSE;LSE
GB0004915632;KIE;"Kier Group plc";GBX;;;UK;LSE;LSE
GB0005359004;RNWH;"Renew Holdings plc";GBX;;;UK;LSE;LSE
GB0005363014;LWB;"Low & Bonar PLC";GBX;;;UK;LSE;LSE
GB0005405286;HSBA;"HSBC Holdings plc";GBX;;;UK;LSE;LSE
GB0005405286;0005;"HSBC Holdings plc";HKD;;;"Hong Kong";HK;HK
GB0005576813;HWDN;"Howden Joinery Group Plc";GBX;;;UK;LSE;LSE
GB0005603997;LGEN;"Legal & General Group Plc";GBX;;;UK;LSE;LSE
GB0005630420;MER;"Mears Group plc";GBX;;;UK;LSE;LSE
GB0005746358;MCB;"McBride plc";GBX;;;UK;LSE;LSE
GB0005758098;MGGT;"Meggitt PLC";GBX;;;UK;LSE;LSE
GB0005790059;MNZS;"John Menzies plc";GBX;;;UK;LSE;LSE
GB0006027295;MGAM;"Morgan Advanced Materials plc";GBX;;;UK;LSE;LSE
GB0006043169;MRW;"Wm Morrison Supermarkets PLC";GBX;;;UK;LSE;LSE
GB0006215205;NEX;"National Express Group PLC";GBX;;;UK;LSE;LSE
GB0006449366;APF;"Anglo Pacific Group plc";GBX;;;UK;LSE;LSE
GB0006449366;APY;"Anglo Pacific Group plc";CAD;;;Canada;TO;TO
GB0006640972;FOUR;"4imprint Group plc";GBX;;;UK;LSE;LSE
GB0006650450;OXIG;"Oxford Instruments plc";GBX;;;UK;LSE;LSE
GB0006731235;ABF;"Associated British Foods plc";GBX;;;UK;LSE;LSE
GB0006776081;PSON;"Pearson plc";GBX;;;UK;LSE;LSE
GB0006798424;PLI;"Perpetual Income and Growth Investment Trust Plc";GBX;;;UK;LSE;LSE
GB0006825383;PSN;"Persimmon Plc";GBX;;;UK;LSE;LSE
GB0006834344;INTU;"intu properties plc";GBP;;;UK;LSE;LSE
GB0006870611;GBG;"GB Group plc";GBX;;;UK;LSE;LSE
GB0004016704;SUN;"Surgical Innovations Group plc";GBX;;;UK;LSE;LSE
GB0006886666;ERM;"Euromoney Institutional Investor PLC";GBX;;;UK;LSE;LSE
GB0006928617;UTG;"The Unite Group plc";GBX;;;UK;LSE;LSE
GB0006963689;PRV;"Porvair plc";GBX;;;UK;LSE;LSE
GB0007099541;PRU;"Prudential plc";GBX;;;UK;LSE;LSE
GB0007099541;2378;"Prudential plc";HKD;;;"Hong Kong";HK;HK
GB0007188757;RIO;"Rio Tinto Group";GBX;;;UK;LSE;LSE
GB0007281198;SCPA;"Scapa Group plc";GBX;;;UK;LSE;LSE
GB0007323586;RSW;"Renishaw plc";GBX;;;UK;LSE;LSE
GB0007325078;RNO;"Renold plc";GBX;;;UK;LSE;LSE
GB0007365546;CLLN;"Carillion PLC";GBP;;;"United Kingdom";LSE;LSE
GB0007594764;RPS;"RPS Group plc";GBX;;;UK;LSE;LSE
GB0007668071;CBG;"Close Brothers Group plc";GBX;;;UK;LSE;LSE
GB0007669376;STJ;"St. James's Place plc";GBX;;;UK;LSE;LSE
GB0007689002;KCT;"Kin and Carta plc";GBX;;;UK;LSE;LSE
GB0007739609;TPK;"Travis Perkins plc";GBX;;;UK;LSE;LSE
GB0007908733;SSE;"SSE plc";GBX;;;UK;LSE;LSE
GB0007958233;SNR;"Senior plc";GBX;;;UK;LSE;LSE
GB0007973794;SRP;"Serco Group plc";GBX;;;UK;LSE;LSE
GB0007990962;SHB;"Shaftesbury PLC";GBX;;;UK;LSE;LSE
GB0007995243;RWI;"Renewi plc";GBX;;;UK;LSE;LSE
GB0008025412;SHI;"SIG plc";GBX;;;UK;LSE;LSE
GB0008085614;MGNS;"Morgan Sindall Group plc";GBX;;;UK;LSE;LSE
GB0008220112;SMDS;"DS Smith Plc";GBX;;;UK;LSE;LSE
GB0008481250;PHTM;"Photo-Me International plc";GBX;;;UK;LSE;LSE
GB0008706128;LLOY;"Lloyds Banking Group plc";GBX;;;UK;LSE;LSE
GB0008711763;TTG;"TT Electronics plc";GBX;;;UK;LSE;LSE
GB0008754136;TATE;"Tate & Lyle plc";GBX;;;UK;LSE;LSE
GB0008782301;TW;"Taylor Wimpey plc";GBX;;;UK;LSE;LSE
GB0008794710;TEP;"Telecom Plus PLC";GBX;;;UK;LSE;LSE
GB0008847096;TSCO;"Tesco PLC";GBX;;;UK;LSE;LSE
GB0008883927;TRI;"Trifast plc";GBX;;;UK;LSE;LSE
GB0009039941;RCH;"Reach plc";GBX;;;UK;LSE;LSE
GB0009065060;HSL;"Henderson Smaller Companies Investment Trust";GBX;;;UK;LSE;LSE
GB0009067447;MTC;"Mothercare plc";GBX;;;UK;LSE;LSE
GB0009123323;ULE;"Ultra Electronics Holdings plc";GBX;;;UK;LSE;LSE
GB0009223206;SN;"Smith & Nephew plc";GBX;;;UK;LSE;LSE
GB0009252882;GSK;"GlaxoSmithKline plc";GBX;;;UK;LSE;LSE
GB0009292243;VCT;"Victrex plc";GBX;;;UK;LSE;LSE
GB0009296665;VTC;"The Vitec Group plc";GBX;;;UK;LSE;LSE
GB0009376368;SDL;"SDL plc";GBX;;;UK;LSE;LSE
GB0009390070;VLX;"Volex plc";GBX;;;UK;LSE;LSE
GB0009465807;WEIR;"The Weir Group PLC";GBX;;;UK;LSE;LSE
GB0009619924;IQE;"IQE plc";GBX;;;UK;LSE;LSE
GB0009633180;DPH;"Dechra Pharmaceuticals PLC";GBX;;;UK;LSE;LSE
GB0009692319;WIL;"Wilmington plc";GBX;;;UK;LSE;LSE
GB0009697037;BAB;"Babcock International Group PLC";GBX;;;UK;LSE;LSE
GB0009887422;SYNT;"Synthomer plc";GBX;;;UK;LSE;LSE
GB0030232317;PAGE;"PageGroup plc";GBX;;;UK;LSE;LSE
US36197T1034;GWPH;"GW Pharmaceuticals plc";USD;;;USA;US;US
GB0030544687;GWPRF;"GW Pharmaceuticals plc";USD;;;USA;US;US
GB0030544687;GW2A;"GW Pharmaceuticals plc";EUR;;;Germany;F;F
GB0030927254;ASC;"ASOS Plc";GBX;;;UK;LSE;LSE
GB0031215220;CCL;"Carnival Corporation & Plc";GBX;;;UK;LSE;LSE
GB0031274896;MKS;"Marks and Spencer Group plc";GBX;;;UK;LSE;LSE
GB0031348658;BARC;"Barclays PLC";GBX;;;UK;LSE;LSE
GB0031477770;FDP;"First Derivatives plc";GBX;;;UK;LSE;LSE
GB0031509804;EKF;"EKF Diagnostics Holdings plc";GBX;;;UK;LSE;LSE
GB0031544546;POG;"Petropavlovsk PLC";GBX;;;UK;LSE;LSE
GB0031638363;ITRK;"Intertek Group plc";GBX;;;UK;LSE;LSE
GB0031698896;WMH;"William Hill plc";GBX;;;UK;LSE;LSE
GB0031743007;BRBY;"Burberry Group plc";GBX;;;UK;LSE;LSE
GB0031852162;JLP;"Jubilee Metals Group PLC";GBX;;;UK;LSE;LSE
GB0032036807;EAH;"ECO Animal Health Group plc";GBX;;;UK;LSE;LSE
GB0032087826;AMER;"Amerisur Resources plc";GBP;;;UK;LSE;LSE
GB0032089863;NXT;"NEXT plc";GBX;;;UK;LSE;LSE
GB0032350695;ANCR;"Animalcare Group plc";GBX;;;UK;LSE;LSE
GB0032360173;HGM;"Highland Gold Mining Limited";GBX;;;UK;LSE;LSE
GB0033057794;DIA;"Dialight plc";GBX;;;UK;LSE;LSE
GB0033195214;KGF;"Kingfisher plc";GBX;;;UK;LSE;LSE
GB0033711010;IMM;"ImmuPharma plc";GBX;;;UK;LSE;LSE
GB00B1H0DZ51;TCAP;"TP ICAP plc";GBX;;;UK;LSE;LSE
GB0033986497;ITV;"ITV plc";GBX;;;UK;LSE;LSE
GB0034291418;CAU;"Centaur Media Plc";GBX;;;UK;LSE;LSE
GB0059822006;DLG;"Dialog Semiconductor Plc";EUR;;;Germany;XETRA;XETRA
GB00B00FPT80;CSN;"Chesnara plc";GBX;;;UK;LSE;LSE
GB00B012BV22;MSLH;"Marshalls plc";GBX;;;UK;LSE;LSE
GB00B012TP20;HFD;"Halfords Group plc";GBX;;;UK;LSE;LSE
GB00B0130H42;ITM;"ITM Power Plc";GBX;;;UK;LSE;LSE
GB00B019KW72;SBRY;"J Sainsbury plc";GBX;;;UK;LSE;LSE
GB00B01C3S32;RRS;"Randgold Resources Limited";GBP;;;UK;LSE;LSE
GB00B01FLG62;GFS;"G4S plc";GBX;;;UK;LSE;LSE
GB00B01JLR99;NANO;"Nanoco Group plc";GBX;;;UK;LSE;LSE
GB00B01QGK86;NCC;"NCC Group plc";GBX;;;UK;LSE;LSE
GB00B01YZ052;IDH;"Immunodiagnostic Systems Holdings PLC";GBX;;;UK;LSE;LSE
GB00B021F836;WINE;"Naked Wines plc";GBX;;;UK;LSE;LSE
GB00BFD2QZ40;HYR;"Hydrodec Group plc";GBX;;;UK;LSE;LSE
GB00B02H2F76;AUG;"Augean plc";GBX;;;UK;LSE;LSE
GB00B02J6398;ADM;"Admiral Group plc";GBX;;;UK;LSE;LSE
GB00B02L3W35;BKG;"The Berkeley Group Holdings plc";GBX;;;UK;LSE;LSE
GB00B02QND93;PAY;"PayPoint plc";GBX;;;UK;LSE;LSE
GB00B02RFS12;SAR;"Sareum Holdings plc";GBX;;;UK;LSE;LSE
GB00B033F229;CNA;"Centrica plc";GBX;;;UK;LSE;LSE
GB00B03HDJ73;STOB;"Stobart Group Limited";GBX;;;UK;LSE;LSE
GB00B040L800;STAF;"Staffline Group plc";GBX;;;UK;LSE;LSE
GB00B04PYL99;BLVN;"Bowleven plc";GBX;;;UK;LSE;LSE
GB00BDR6W943;PYC;"Physiomics Plc";GBX;;;UK;LSE;LSE
GB00B04V1276;GRI;"Grainger plc";GBX;;;UK;LSE;LSE
GB00BYVT4J08;RGM;"Regency Mines Plc";GBX;;;UK;LSE;LSE
GB00B06GM726;TCM;"Telit Communications PLC";GBX;;;UK;LSE;LSE
GB00B06GNN57;BLTG;"Blancco Technology Group plc";GBX;;;UK;LSE;LSE
GB00B06QFB75;IGG;"IG Group Holdings plc";GBX;;;UK;LSE;LSE
GB00B0744359;ESNT;"Essentra plc";GBX;;;UK;LSE;LSE
GB00B0744B38;BNZL;"Bunzl plc";GBX;;;UK;LSE;LSE
GB00B07KD360;CBHMF;"Cobham plc";USD;;;USA;US;US
GB00B082RF11;RTO;"Rentokil Initial plc";GBX;;;UK;LSE;LSE
GB00B08F4599;BOR;"Borders & Southern Petroleum plc";GBX;;;UK;LSE;LSE
GB00BFZ45C84;SPA;"1Spatial Plc";GBX;;;UK;LSE;LSE
GB00B09LSH68;IMASF;"Inmarsat Plc";USD;;;USA;US;US
GB00B0CM0C50;IDEA;"Ideagen plc";GBX;;;UK;LSE;LSE
GB00BYWKBV38;RRR;"Red Rock Resources plc";GBX;;;UK;LSE;LSE
GB00B0DFPF10;EPO;"Earthport plc";GBP;;;UK;LSE;LSE
GB00B0FVQX23;RKH;"Rockhopper Exploration plc";GBX;;;UK;LSE;LSE
GB00B0FYMT95;HLCL;"Helical plc";GBX;;;UK;LSE;LSE
GB00B0H2K534;PFC;"Petrofac Limited";GBX;;;UK;LSE;LSE
GB00B0HZPV38;KAZ;"KAZ Minerals PLC";GBX;;;UK;LSE;LSE
GB00B0KWHQ09;CTH;"CareTech Holdings PLC";GBX;;;UK;LSE;LSE
GB00B0LCW083;HIK;"Hikma Pharmaceuticals PLC";GBX;;;UK;LSE;LSE
GB00B0N8QD54;BVIC;"Britvic plc";GBX;;;UK;LSE;LSE
GB00BYYDKX57;ECR;"ECR Minerals plc";GBX;;;UK;LSE;LSE
GB00B0SWJX34;LSE;"London Stock Exchange Group plc";GBX;;;UK;LSE;LSE
GB00B0WMWD03;QQ;"QinetiQ Group plc";GBX;;;UK;LSE;LSE
GB00B0YG1K06;RTN;"The Restaurant Group plc";GBX;;;UK;LSE;LSE
GB00B10RZP78;ULVR;"The Unilever Group";GBX;;;UK;LSE;LSE
GB00B11SZ269;VLS;"Velocys plc";GBX;;;UK;LSE;LSE
GB00B125SX82;PANR;"Pantheon Resources Plc";GBX;;;UK;LSE;LSE
GB00B128C026;AB1;"Air Berlin PLC";EUR;;;Germany;F;F
GB00B128J450;IPO;"IP Group Plc";GBX;;;UK;LSE;LSE
GB00B132NW22;ASHM;"Ashmore Group PLC";GBX;;;UK;LSE;LSE
GB00B135BJ46;SVS;"Savills plc";GBX;;;UK;LSE;LSE
GB00B14SKR37;CMCX;"CMC Markets Plc";GBX;;;UK;LSE;LSE
GB00B15FWH70;CINE;"Cineworld Group plc";GBX;;;UK;LSE;LSE
GB00B1722W11;DTG;"Dart Group PLC";GBX;;;UK;LSE;LSE
GB00B17BBQ50;INVP;"Investec Group";GBX;;;UK;LSE;LSE
GB00B17MMZ46;LOOK;"Lookers plc";GBX;;;UK;LSE;LSE
GB0002183191;CNCT;"Connect Group PLC";GBX;;;UK;LSE;LSE
GB00B17WCR61;CNCT;"Connect Group PLC";GBX;;;UK;LSE;LSE
GB00B18P5K83;TPT;"Topps Tiles Plc";GBX;;;UK;LSE;LSE
GB00B18V8630;PNN;"Pennon Group Plc";GBX;;;UK;LSE;LSE
GB00B19NLV48;EXPN;"Experian plc";GBX;;;UK;LSE;LSE
GB00B19Z1432;PZC;"PZ Cussons Plc";GBX;;;UK;LSE;LSE
GB00B19Z2J52;UKCM;"UK Commercial Property REIT Limited";GBX;;;UK;LSE;LSE
GB00B1CKQ739;DNLM;"Dunelm Group plc";GBX;;;UK;LSE;LSE
GB00B1CL5249;LAM;"Lamprell plc";GBX;;;UK;LSE;LSE
GB00B1CRLC47;MNDI;"Mondi plc";GBX;;;UK;LSE;LSE
GB00B1FH8J72;SVT;"Severn Trent Plc";GBX;;;UK;LSE;LSE
GB00B1FP6H53;MAB;"Mitchells & Butlers plc";GBX;;;UK;LSE;LSE
GB00B1FP8915;BBA;"Signature Aviation plc";GBP;;;UK;LSE;LSE
GB00B1FW5029;HOC;"Hochschild Mining plc";GBX;;;UK;LSE;LSE
GB00B1G5HX72;LSL;"LSL Property Services plc";GBX;;;UK;LSE;LSE
GB00B1GCLT25;POLR;"Polar Capital Holdings plc";GBX;;;UK;LSE;LSE
GB00B1GK4645;VTU;"Vertu Motors plc";GBX;;;UK;LSE;LSE
GB00B1H0DZ51;TCAP;"TP ICAP plc";GBX;;;UK;LSE;LSE
GB00B1JQBT10;PDG;"Pendragon PLC";GBX;;;UK;LSE;LSE
GB00B1JQDM80;MARS;"Marston's PLC";GBX;;;UK;LSE;LSE
GB00B1KJJ408;WTB;"Whitbread PLC";GBX;;;UK;LSE;LSE
GB00B1N7Z094;SAFE;"Safestore Holdings plc";GBX;;;UK;LSE;LSE
GB00B1P6ZR11;BWNG;"N Brown Group plc";GBX;;;UK;LSE;LSE
GB00B1QH8P22;FRAS;"Frasers Group plc";GBX;;;UK;LSE;LSE
GB00B1QH8P22;ZVX;"Frasers Group plc";EUR;;;Germany;F;F
GB00B1QH8P22;SDISY;"Frasers Group plc";USD;;;USA;US;US
GB00B1QH8P22;SDIPF;"Frasers Group plc";USD;;;USA;US;US
GB00B1V9NW54;HFG;"Hilton Food Group plc";GBX;;;UK;LSE;LSE
INE692G01013;XCHANGING;"Xchanging Solutions Limited";INR;;;India;NSE;NSE
INE692G01013;XCHANGING;"Xchanging Solutions Limited";INR;;;India;BSE;BSE
GB00B1VNST91;LARRF;"Laird PLC";USD;;;USA;US;US
GB00B1VNSX38;DRX;"Drax Group plc";GBX;;;UK;LSE;LSE
GB00B1VYCH82;TCKGF;"Thomas Cook Group plc";USD;;;USA;US;US
GB00B1VYCH82;TCKGY;"Thomas Cook Group plc";USD;;;USA;US;US
GB00B1VZ0M25;HL;"Hargreaves Lansdown plc";GBX;;;UK;LSE;LSE
GB00B1WY2338;SMIN;"Smiths Group plc";GBX;;;UK;LSE;LSE
GB00B1XH2C03;FXPO;"Ferrexpo plc";GBX;;;UK;LSE;LSE
GB00B1XZS820;AAL;"Anglo American plc";GBX;;;UK;LSE;LSE
GB00B1XZS820;AAM;"Anglo American plc";CHF;;;Switzerland;SW;SW
GB00B1YKG049;IPF;"International Personal Finance plc";GBX;;;UK;LSE;LSE
GB00B1Z4ST84;PFG;"Provident Financial plc";GBX;;;UK;LSE;LSE
GB00B1ZBKY84;MONY;"Moneysupermarket.com Group PLC";GBX;;;UK;LSE;LSE
GB00B23K0M20;CPI;"Capita plc";GBX;;;UK;LSE;LSE
GB00B2425G68;CRW;"Craneware plc";GBX;;;UK;LSE;LSE
GB00B27YGJ97;SFR;"Severfield plc";GBX;;;UK;LSE;LSE
GB00B2863827;CVSG;"CVS Group plc";GBX;;;UK;LSE;LSE
GB00B29H4253;TYMN;"Tyman plc";GBX;;;UK;LSE;LSE
GB00BZ042C28;IGAS;"IGas Energy plc";GBX;;;UK;LSE;LSE
GB00B29PWM59;IGESF;"IGas Energy plc";USD;;;USA;US;US
GB00B2B0DG97;REL;"RELX PLC";GBX;;;UK;LSE;LSE
GB00B2NGPM57;PAG;"Paragon Banking Group PLC";GBX;;;UK;LSE;LSE
GB00B2PDGW16;SMWH;"WH Smith PLC";GBX;;;UK;LSE;LSE
GB00B2QL5C79;IOF;"Iofina plc";GBX;;;UK;LSE;LSE
GB00B2QPKJ12;FRES;"Fresnillo Plc";GBX;;;UK;LSE;LSE
GB00B39J2M42;UU;"United Utilities Group PLC";GBX;;;UK;LSE;LSE
GB00B3DGH821;DLAR;"De La Rue plc";GBX;;;UK;LSE;LSE
GB00B3FLWH99;BOY;"Bodycote plc";GBX;;;UK;LSE;LSE
GB00B3MBS747;OCDO;"Ocado Group plc";GBX;;;UK;LSE;LSE
GB00B3Q74M51;DPP;"DP Poland plc";GBX;;;UK;LSE;LSE
GB00B3Y2J508;GFRD;"Galliford Try plc";GBX;;;UK;LSE;LSE
KYG5960M1197;1360;"NOVA Group Holdings Limited";HKD;;;"Hong Kong";HK;HK
GB00B40SF849;NVAL;"Novae Group Plc";EUR;;;Germany;STU;STU
GB00BLWF0R63;REDD;"Redde Northgate plc";GBX;;;UK;LSE;LSE
GB00B43G0577;PMO;"Premier Oil plc";GBX;;;UK;LSE;LSE
GB00B45C9X44;CHG;"Chemring Group PLC";GBX;;;UK;LSE;LSE
GB00B4NJ4984;IDE;"IDE Group Holdings plc";GBX;;;UK;LSE;LSE
GB00B4T7HX10;LTG;"Learning Technologies Group plc";GBX;;;UK;LSE;LSE
GB00B4WFW713;LMP;"LondonMetric Property Plc";GBX;;;UK;LSE;LSE
GB00B4X1RC86;SMS;"Smart Metering Systems plc";GBX;;;UK;LSE;LSE
GB00B4Y7R145;DC;"Dixons Carphone plc";GBX;;;UK;LSE;LSE
GB00B4YCDF59;TALK;"TalkTalk Telecom Group PLC";GBX;;;UK;LSE;LSE
GB00B4YZN328;COA;"Coats Group plc";GBX;;;UK;LSE;LSE
GB00B53P2009;JUP;"Jupiter Fund Management Plc";GBX;;;UK;LSE;LSE
GB00B572ZV91;PHAR;"Pharos Energy plc";GBX;;;UK;LSE;LSE
GB00B572ZV91;SOCLF;"Pharos Energy plc";USD;;;USA;US;US
GB00B580MF54;HUR;"Hurricane Energy plc";GBX;;;UK;LSE;LSE
GB00B5N0P849;WG;"John Wood Group PLC";GBX;;;UK;LSE;LSE
GB00B5NR1S72;RST;"Restore plc";GBX;;;UK;LSE;LSE
GB00B60BD277;SDRY;"Superdry Plc";GBX;;;UK;LSE;LSE
GB00B61D1Y04;EMIS;"EMIS Group plc";GBX;;;UK;LSE;LSE
GB00B61TVQ02;INCH;"Inchcape plc";GBX;;;UK;LSE;LSE
GB00B62G9D36;CAPC;"Capital & Counties Properties PLC";GBX;;;UK;LSE;LSE
GB00B635TG28;ENQ;"EnQuest PLC";GBX;;;UK;LSE;LSE
GB00B63H8491;RR;"Rolls-Royce Holdings plc";GBX;;;UK;LSE;LSE
GB00B63QSB39;GRG;"Greggs plc";GBX;;;UK;LSE;LSE
GB00B64NSP76;COST;"Costain Group PLC";GBX;;;UK;LSE;LSE
GB00B6774699;ABC;"Abcam plc";GBX;;;UK;LSE;LSE
GB00B6TKHP66;STB;"Secure Trust Bank PLC";GBX;;;UK;LSE;LSE
GB00B6XZKY75;BAG;"A.G. BARR p.l.c";GBX;;;UK;LSE;LSE
GB00B6YTLS95;SGC;"Stagecoach Group plc";GBX;;;UK;LSE;LSE
GB00B71N6K86;EVR;"EVRAZ plc";GBX;;;UK;LSE;LSE
GB00B74CDH82;CNE;"Cairn Energy PLC";GBX;;;UK;LSE;LSE
GB00B759CR16;BGEO;"Bank of Georgia Group PLC";GBX;;;UK;LSE;LSE
GB00BF4HYT85;BGEO;"Bank of Georgia Group PLC";GBX;;;UK;LSE;LSE
GB00B7KR2P84;EZJ;"easyJet plc";GBX;;;UK;LSE;LSE
GB00B7N0K053;PFD;"Premier Foods plc";GBX;;;UK;LSE;LSE
US4642872349;RBS;"The Royal Bank of Scotland Group plc";USD;;;USA;US;US
GB00B7TW1V39;RCN;"Redcentric plc";GBX;;;UK;LSE;LSE
GB00B7Z0Q502;TUNG;"Tungsten Corporation plc";GBX;;;UK;LSE;LSE
GB00B82YXW83;VSVS;"Vesuvius plc";GBX;;;UK;LSE;LSE
GB00B84LVH87;ITX;"Itaconix plc";GBX;;;UK;LSE;LSE
GB00B89J2419;CLIN;"Clinigen Group plc";GBX;;;UK;LSE;LSE
GB00B8C3BL03;SGE;"The Sage Group plc";GBX;;;UK;LSE;LSE
GB00B8HX8Z88;MDC;"Mediclinic International plc";GBX;;;UK;LSE;LSE
GB00B8SC6K54;UKW;"Greencoat UK Wind PLC";GBX;;;UK;LSE;LSE
GB00B8VZXT93;CRST;"Crest Nicholson Holdings plc";GBX;;;UK;LSE;LSE
GB00B8W67662;LBTYA;"Liberty Global plc";USD;;;USA;US;US
USG5480U1046;LBTYA;"Liberty Global plc";USD;;;USA;US;US
GB00B90XFF12;SOU;"Sound Energy plc";GBX;;;UK;LSE;LSE
GB00B99PCP71;QXT;"Quixant Plc";GBX;;;UK;LSE;LSE
GB00B9GQVG73;ABDP;"AB Dynamics plc";GBX;;;UK;LSE;LSE
GB00B9NWP991;CWD;"Countrywide plc";GBX;;;UK;LSE;LSE
GB00BBG9VN75;AVV;"AVEVA Group plc";GBX;;;UK;LSE;LSE
GB00BBQ38507;KWS;"Keywords Studios plc";GBX;;;UK;LSE;LSE
GB00BBT32N39;FDEV;"Frontier Developments plc";GBX;;;UK;LSE;LSE
GB00BCKFY513;FOXT;"Foxtons Group plc";GBX;;;UK;LSE;LSE
GB00BCRX1J15;JUST;"Just Group plc";GBX;;;UK;LSE;LSE
GB00BWGCH354;FJET;"fastjet Plc";GBX;;;UK;LSE;LSE
GB00BD0NVK62;BOWL;"Hollywood Bowl Group plc";GBX;;;UK;LSE;LSE
GB00BD0Q3L08;AAOG;"Anglo African Oil & Gas plc";GBX;;;UK;LSE;LSE
GB00BD0SFR60;MOTR;"Motorpoint Group plc";GBX;;;UK;LSE;LSE
GB00BD2YHN21;EVRH;"MelodyVR Group PLC";GBX;;;UK;LSE;LSE
GB00BD3VFW73;CTEC;"Convatec Group Plc";GBX;;;UK;LSE;LSE
GB00BD45SH49;IHP;"IntegraFin Holdings plc";GBX;;;UK;LSE;LSE
GB00BD4FCK53;MILA;"Mila Resources PLC";GBP;;;"United Kingdom";LSE;LSE
GB00BD6GN030;VMUK;"Virgin Money UK PLC";GBX;;;UK;LSE;LSE
GB00BD6GN030;VUK;"Virgin Money UK PLC";AUD;;;Australia;AU;AU
GB00BD6GN030;CBBYF;"Virgin Money UK PLC";USD;;;USA;US;US
GB00BD6GN030;CYBBF;"Virgin Money UK PLC";USD;;;USA;US;US
GB00BD6K4575;CPG;"Compass Group PLC";GBX;;;UK;LSE;LSE
GB00BD6RF223;WJG;"Watkin Jones Plc";GBX;;;UK;LSE;LSE
GB00BD7XPJ64;NRR;"NewRiver REIT plc";GBX;;;UK;LSE;LSE
GB00BD8DR117;BIFF;"Biffa plc";GBX;;;UK;LSE;LSE
GB00BD8HBD32;CSH;"Civitas Social Housing Plc";GBX;;;UK;LSE;LSE
GB00BD8QVC95;ESLGF;"Eddie Stobart Logistics plc";USD;;;USA;US;US
GB00BDCXV269;QLT;"Quilter plc";GBX;;;UK;LSE;LSE
GB00BDFBVT43;OXB;"Oxford Biomedica plc";GBX;;;UK;LSE;LSE
GB00BDGTXM47;ARW;"Arrow Global Group PLC";GBX;;;UK;LSE;LSE
GB00BDHXPG30;ALFA;"Alfa Financial Software Holdings PLC";GBX;;;UK;LSE;LSE
GB00BDSFG982;FTI;"TechnipFMC plc";USD;;;USA;US;US
US30249U1016;FTI;"TechnipFMC plc";USD;;;USA;US;US
GB00BDVZYZ77;RMG;"Royal Mail plc";GBX;;;UK;LSE;LSE
GB00BF0P7H59;SOHO;"Triple Point Social Housing REIT PLC";GBP;;;"United Kingdom";LSE;LSE
GB00BF448H58;GLO;"ContourGlobal plc";GBX;;;UK;LSE;LSE
GB00BF5H9P87;GPOR;"Great Portland Estates Plc";GBX;;;UK;LSE;LSE
GB00BF5SDZ96;STCK;"Stock Spirits Group PLC";GBX;;;UK;LSE;LSE
GB00BF8J3Z99;BAKK;"Bakkavor Group plc";GBX;;;UK;LSE;LSE
GB00BF8Q6K64;SLA;"Standard Life Aberdeen plc";GBX;;;UK;LSE;LSE
GB00BVFD7Q58;SLA;"Standard Life Aberdeen plc";GBX;;;UK;LSE;LSE
GB00BFFK8T45;AMGO;"Amigo Holdings PLC";GBX;;;UK;LSE;LSE
GB00BFXZC448;AML;"Aston Martin Lagonda Global Holdings plc";GBX;;;UK;LSE;LSE
GB00BFZNLB60;AJB;"AJ Bell plc";GBX;;;UK;LSE;LSE
GB00BG0TPX62;FCH;"Funding Circle Holdings plc";GBX;;;UK;LSE;LSE
GB0007282386;RDW;"Redrow plc";GBX;;;UK;LSE;LSE
GB00BG12Y042;ENOG;"Energean plc";GBX;;;UK;LSE;LSE
GB00BG1TSQ91;RMDZ;"RM ZDP PLC";GBX;;;UK;LSE;LSE
GB00BG49KP99;BBOX;"Tritax Big Box REIT Plc";GBX;;;UK;LSE;LSE
GB00BFWK4V16;SSPG;"SSP Group plc";GBX;;;UK;LSE;LSE
GB00BNGWY422;SSPG;"SSP Group plc";GBX;;;UK;LSE;LSE
GB00BGBN7C04;SSPPF;"SSP Group plc";USD;;;USA;US;US
GB00B2987V85;RMV;"Rightmove plc";GBX;;;UK;LSE;LSE
GB00BGDT3G23;RMV;"Rightmove plc";GBX;;;UK;LSE;LSE
GB00BGLP8L22;IMI;"IMI plc";GBX;;;UK;LSE;LSE
GB00BGP6Q951;NOG;"Nostrum Oil & Gas PLC";GBX;;;UK;LSE;LSE
GB00BGXQNP29;PHNX;"Phoenix Group Holdings plc";GBX;;;UK;LSE;LSE
KYG7091M1096;PHNX;"Phoenix Group Holdings plc";GBX;;;UK;LSE;LSE
GB00BH3VJ782;NETW;"Network International Holdings PLC";USD;;;"United Arab Emirates";LSE;LSE
GB00BH4HKS39;VOD;"Vodafone Group Plc";GBX;;;UK;LSE;LSE
GB00BHD66J44;TIMA;"ZEAL Network SE";EUR;;;Germany;XETRA;XETRA
GB00BD8QVH41;IHG;"InterContinental Hotels Group PLC";GBX;;;UK;LSE;LSE
GB00BHJYC057;IHG;"InterContinental Hotels Group PLC";GBX;;;UK;LSE;LSE
GB00BJ0LT190;HGT;"HgCapital Trust PLC";GBP;;;"United Kingdom";LSE;LSE
GB00BD8YWM01;MCRO;"Micro Focus International plc";GBX;;;UK;LSE;LSE
US5948373049;MFGP;"Micro Focus International plc";USD;;;USA;US;US
GB00BJ1F4N75;MCFUF;"Micro Focus International plc";USD;;;USA;US;US
GB00BJ3VW957;MCLS;"McColl's Retail Group plc";GBX;;;UK;LSE;LSE
GB00BJ62K685;PETS;"Pets at Home Group Plc";GBX;;;UK;LSE;LSE
GB00BJ7HMW26;FIN;"Finablr PLC";GBX;;;UK;LSE;LSE
GB00BJ7HMW26;FNBLF;"Finablr PLC";USD;;;USA;US;US
GB00BYZWX769;CRDA;"Croda International Plc";GBX;;;UK;LSE;LSE
GB00BJFFLV09;COIHY;"Croda International Plc";USD;;;USA;US;US
GB00BJFFLV09;COIHF;"Croda International Plc";USD;;;USA;US;US
GB00BJHPLV88;N91;"Ninety One PLC";GBP;;;"United Kingdom";LSE;LSE
GB00BJL5BR07;DDDD;"4D pharma plc";GBX;;;UK;LSE;LSE
GB00BJQZC279;DMGT;"Daily Mail and General Trust P L C";GBP;;;"United Kingdom";LSE;LSE
GB00BJT0FF39;RM;"RM plc";GBX;;;UK;LSE;LSE
GB00BJT16S69;TROX;"Tronox Holdings PLC";USD;;;"United States of America";US;US
GB00BJTNFH41;AO;"AO World plc";GBX;;;UK;LSE;LSE
GB00BJVD3B28;CIR;"Circassia Group Plc";GBX;;;UK;LSE;LSE
GB00BJVJZD68;VAL;"Valaris PLC";USD;;;"United Kingdom";US;US
GB00BJVWTM27;GMS;"Gulf Marine Services PLC";GBX;;;UK;LSE;LSE
GB00BK1PTB77;AGK;"Aggreko Plc";GBX;;;UK;LSE;LSE
GB00BKDM7X41;SIG;"Signature Aviation plc";GBX;;;UK;LSE;LSE
GB00BKDM7X41;BBAVY;"Signature Aviation plc";USD;;;USA;US;US
GB00B1FP8915;BBA;"Signature Aviation plc";GBP;;;UK;LSE;LSE
GB00BKDM7X41;BBAVF;"Signature Aviation plc";USD;;;USA;US;US
GB00BKDTK925;TRN;"Trainline Plc";GBX;;;UK;LSE;LSE
GB00BKDTK925;TNLIY;"Trainline Plc";USD;;;USA;US;US
GB00BKDTK925;TNLIF;"Trainline Plc";USD;;;USA;US;US
GB00BKKMKR23;RSA;"RSA Insurance Group plc";GBX;;;UK;LSE;LSE
GB00B01D1K48;VEC;"Vectura Group plc";GBX;;;UK;LSE;LSE
GB00BKM2MW97;V4TA;"Vectura Group plc";EUR;;;Germany;F;F
GB00BKM2MW97;VEGPF;"Vectura Group plc";USD;;;USA;US;US
GB0002520509;HYVE;"Hyve Group Plc";GBX;;;UK;LSE;LSE
GB00BKP36R26;IEG;"Hyve Group Plc";EUR;;;Germany;F;F
GB00BKP36R26;ITEGD;"Hyve Group Plc";USD;;;USA;US;US
GB00BKP36R26;ITEGY;"Hyve Group Plc";USD;;;USA;US;US
GB00BKP36R26;ITEPF;"Hyve Group Plc";USD;;;USA;US;US
GB00BKRC5K31;PLP;"Polypipe Group plc";GBX;;;UK;LSE;LSE
GB00BKS7YK08;TET;"Treatt plc";GBX;;;UK;LSE;LSE
GB00BKT04W07;UANC;"Urban&Civic plc";GBX;;;UK;LSE;LSE
GB00BRTL9B63;MTPH;"Midatech Pharma plc";GBX;;;UK;LSE;LSE
US59564R1041;MTP;"Midatech Pharma plc";USD;;;USA;US;US
GB00B3Y2J508;GFRD;"Galliford Try plc";GBX;;;UK;LSE;LSE
GB00BLBP4Y22;IMO;"IMImobile PLC";GBX;;;UK;LSE;LSE
GB00BLDYK618;SMT;"Scottish Mortgage Investment Trust PLC";GBX;;;UK;LSE;LSE
GB00BLP57Y95;PSSL;"Pollen Street Secured Lending PLC";GBP;;;"United Kingdom";LSE;LSE
GB00BLP5YB54;AY;"Atlantica Sustainable Infrastructure plc";USD;;;USA;US;US
GB00BLRLH124;ALM;"Allied Minds plc";GBX;;;UK;LSE;LSE
GB00BLSNND18;FEET;"Fundsmith Emerging Equities Trust Plc";GBX;;;UK;LSE;LSE
GB00BLT1Y088;SAGA;"Saga plc";GBX;;;UK;LSE;LSE
GB00BLTVCF91;SHOE;"Shoe Zone plc";GBX;;;UK;LSE;LSE
GB00BLWDVP51;FDM;"FDM Group (Holdings) plc";GBX;;;UK;LSE;LSE
GB00BLWDVR75;ESP;"Empiric Student Property plc";GBX;;;UK;LSE;LSE
GB00BLWF0R63;REDD;"Redde Northgate plc";GBX;;;UK;LSE;LSE
GB00BLY2F708;CARD;"Card Factory plc";GBX;;;UK;LSE;LSE
GB00BM4NR742;FLO;"Flowtech Fluidpower plc";GBX;;;UK;LSE;LSE
GB00BM7S7K96;OSB;"OneSavings Bank Plc";GBX;;;UK;LSE;LSE
GB00BMJ6DW54;INF;"Informa plc";GBX;;;UK;LSE;LSE
GB00BMMV6B79;CLG;"Clipper Logistics plc";GBX;;;UK;LSE;LSE
GB00BMSKPJ95;AA;"AA plc";GBX;;;UK;LSE;LSE
GB00BNLPYF73;SPI;"Spire Healthcare Group plc";GBX;;;UK;LSE;LSE
GB00BQSBH502;MAB1;"Mortgage Advice Bureau (Holdings) plc";GBX;;;UK;LSE;LSE
GB00BRB37M78;DTY;"Dignity plc";GBX;;;UK;LSE;LSE
GB00BRJ6JV17;NSF;"Non-Standard Finance plc";GBX;;;UK;LSE;LSE
GB00BRJ9BJ26;FEVR;"Fevertree Drinks Plc";GBX;;;UK;LSE;LSE
GB00BRK8Y334;JPR;"Johnston Press plc";GBP;;;UK;LSE;LSE
GB00BRS65X63;INDV;"Indivior PLC";GBX;;;UK;LSE;LSE
GB00BRTL9B63;MTPH;"Midatech Pharma plc";GBX;;;UK;LSE;LSE
GB00BSL71W47;MERC;"Mercia Asset Management PLC";GBX;;;UK;LSE;LSE
GB00BTC0LB89;DFS;"DFS Furniture plc";GBX;;;UK;LSE;LSE
GB00BV9FP302;CCC;"Computacenter plc";GBX;;;UK;LSE;LSE
GB00BZ1G4322;MRO;"Melrose Industries PLC";GBX;;;UK;LSE;LSE
GB00BV9FYX34;MLSYY;"Melrose Industries PLC";USD;;;USA;US;US
GB00BV9FYX34;MLSPF;"Melrose Industries PLC";USD;;;USA;US;US
GB00BVDPPV41;RBG;"Revolution Bars Group plc";GBX;;;UK;LSE;LSE
GB00BVFCZV34;RWS;"RWS Holdings plc";GBX;;;UK;LSE;LSE
GB00BF8Q6K64;SLA;"Standard Life Aberdeen plc";GBX;;;UK;LSE;LSE
GB00BVFD7Q58;SLA;"Standard Life Aberdeen plc";GBX;;;UK;LSE;LSE
GB00BVFNZH21;ROR;"Rotork plc";GBX;;;UK;LSE;LSE
GB00BVG1CF25;SUPP;"Schroder UK Public Private Trust PLC";GBP;;;"United Kingdom";LSE;LSE
GB00BVG6X439;VSL;"VPC Specialty Lending Investments PLC";GBP;;;"United Kingdom";LSE;LSE
GB00BVVHWX30;APTD;"Aptitude Software Group plc";GBX;;;UK;LSE;LSE
GB00BVVT4H71;MTFB;"Motif Bio plc";GBX;;;UK;LSE;LSE
GB00BVYVFW23;AUTO;"Auto Trader Group plc";GBX;;;UK;LSE;LSE
GB00BW4NPC58;PXOG;"Prospex Oil And Gas Plc";GBX;;;UK;LSE;LSE
GB00BWFGQN14;SPX;"Spirax-Sarco Engineering plc";GBX;;;UK;LSE;LSE
GB00BY7QYJ50;GROW;"Draper Esprit plc";GBX;;;UK;LSE;LSE
GB00BY9D0Y18;DLG;"Direct Line Insurance Group plc";GBX;;;UK;LSE;LSE
GB00BYM1K758;OTB;"On the Beach Group plc";GBX;;;UK;LSE;LSE
GB00BYM8GJ06;ASCL;"Ascential plc";GBX;;;UK;LSE;LSE
GB00BYMT0J19;LIVN;"LivaNova PLC";USD;;;USA;US;US
USG5509L1010;LIVN;"LivaNova PLC";USD;;;USA;US;US
GB00BYN59130;DOM;"Domino's Pizza Group plc";GBX;;;UK;LSE;LSE
GB00BYNVD082;MCS;"McCarthy & Stone plc";GBX;;;UK;LSE;LSE
GB00BYPHNG03;CSP;"Countryside Properties PLC";GBX;;;UK;LSE;LSE
GB00BYQ0HV16;PRSM;"Blue Prism Group plc";GBX;;;UK;LSE;LSE
GB00BYQ0JC66;BEZ;"Beazley plc";GBX;;;UK;LSE;LSE
GB00BYRJ5J14;PHP;"Primary Health Properties PLC";GBX;;;UK;LSE;LSE
GB00BYRJH519;HSTG;"Hastings Group Holdings plc";GBX;;;UK;LSE;LSE
GB00BYT1DJ19;ICP;"Intermediate Capital Group plc";GBX;;;UK;LSE;LSE
GB00BYV24996;MGP;"Medica Group Plc";GBX;;;UK;LSE;LSE
GB00BYV2MV74;PURP;"Purplebricks Group plc";GBX;;;UK;LSE;LSE
GB00BYV3J755;SENS;"Sensyne Health PLC";GBP;;;"United Kingdom";LSE;LSE
GB00BYW0PQ60;LAND;"Land Securities Group plc";GBX;;;UK;LSE;LSE
GB00BYW2KH80;VRP;"Verona Pharma plc";GBX;;;UK;LSE;LSE
GB00BYWRS683;CPC;"The City Pub Group plc";GBX;;;UK;LSE;LSE
GB00BYWVDP49;SBRE;"Sabre Insurance Group plc";GBX;;;UK;LSE;LSE
GB00BYWWHR75;EQN;"Equiniti Group plc";GBX;;;UK;LSE;LSE
GB00BYX7JT74;DGOC;"Diversified Gas & Oil PLC";USD;;;"United States of America";US;US
GB00BYX91H57;JD;"JD Sports Fashion plc";GBX;;;UK;LSE;LSE
GB00BYXJC278;IBST;"Ibstock plc";GBX;;;UK;LSE;LSE
GB00BYYN4225;HSW;"Hostelworld Group plc";GBX;;;UK;LSE;LSE
GB00BYYTFB60;HSV;"HomeServe plc";GBX;;;UK;LSE;LSE
GB00BYYW3C20;FORT;"Forterra plc";GBX;;;UK;LSE;LSE
GB00BYZC3B04;HOTC;"Hotel Chocolat Group Plc";GBX;;;UK;LSE;LSE
GB00BYZDVK82;SCT;"Softcat plc";GBX;;;UK;LSE;LSE
GB00BYZN9041;FUTR;"Future plc";GBX;;;UK;LSE;LSE
GB00BZ14BX56;GYS;"Gamesys Group plc";GBX;;;UK;LSE;LSE
GB00BZ14BX56;JKPTF;"Gamesys Group plc";USD;;;USA;US;US
GB00BZ16J374;AST;"Ascent Resources plc";GBX;;;UK;LSE;LSE
GB00BZ1G4322;MRO;"Melrose Industries PLC";GBX;;;UK;LSE;LSE
GB00BZ4BQC70;JMAT;"Johnson Matthey Plc";GBX;;;UK;LSE;LSE
GB00BZ6C4F71;MCL;"Morses Club PLC";GBX;;;UK;LSE;LSE
GB00BZ6STL67;MTRO;"Metro Bank PLC";GBX;;;UK;LSE;LSE
GB00BZ6VT592;ACRL;"Accrol Group Holdings plc";GBX;;;UK;LSE;LSE
GB00BZB2KR63;PMI;"Premier Miton Group PLC";GBP;;;"United Kingdom";LSE;LSE
GB00BZBVR613;AVM;"Avocet Mining PLC";USD;;;"United Kingdom";LSE;LSE
GB00BZBX0P70;GYM;"The Gym Group plc";GBX;;;UK;LSE;LSE
GB00BZC0LC10;VCP;"Victoria plc";GBX;;;UK;LSE;LSE
GB00BZC0LP49;LUCE;"Luceco plc";GBX;;;UK;LSE;LSE
GG00B1NP5142;BHMG;"BH Macro Limited GBP";GBX;;;UK;LSE;LSE
GG00B1W3VF54;SRE;"Sirius Real Estate Limited";GBX;;;UK;LSE;LSE
GG00B2R9PM06;CHAR;"Chariot Oil & Gas Limited";GBX;;;UK;LSE;LSE
GG00B3KX4Q34;NBLS;"NB Global Floating Rate Income Fund Ltd";USD;;;"United Kingdom";LSE;LSE
GG00B45L2K95;AEMC;"Aberdeen Emerging Markets Investment Company Limited";GBX;;;UK;LSE;LSE
GG00B4L84979;BUR;"Burford Capital Limited";GBX;;;UK;LSE;LSE
GG00B4TM3943;BMN;"Bushveld Minerals Limited";GBX;;;UK;LSE;LSE
GG00B4ZPCJ00;BCPT;"BMO Commercial Property Trust";GBX;;;UK;LSE;LSE
GG00BB0RDB98;BSIF;"Bluefield Solar Income Fund Limited";GBX;;;UK;LSE;LSE
GG00BBHX2H91;TRIG;"The Renewables Infrastructure Group Limited";GBX;;;UK;LSE;LSE
GG00BFYT9H72;SONG;"Hipgnosis Songs Fund Ltd";GBP;;;Guernsey;LSE;LSE
GG00BJ0JVY01;NESF;"NextEnergy Solar Ord";GBX;;;UK;LSE;LSE
GG00BJL5FH87;JLEN;"JLEN Environmental Assets Group Limited";GBX;;;UK;LSE;LSE
GI000A0F6407;888;"888 Holdings plc";GBX;;;UK;LSE;LSE
ID1000129000;TLKM;"Perusahaan Perseroan (Persero) PT Telekomunikasi Indonesia Tbk";IDR;;;Indonesia;JK;JK
IE0001827041;CRH;"CRH plc";GBX;;;UK;LSE;LSE
IE0001827041;CRG;"CRH plc";EUR;;;Ireland;IR;IR
IE0002424939;DCC;"DCC plc";GBX;;;UK;LSE;LSE
IE0003864109;GNC;"Greencore Group plc";GBX;;;UK;LSE;LSE
IE00BDC5DG00;KMR;"Kenmare Resources plc";GBX;;;UK;LSE;LSE
IE0004879486;KMRPF;"Kenmare Resources plc";USD;;;USA;US;US
IE0033024807;UDG;"UDG Healthcare plc";GBX;;;UK;LSE;LSE
IE00B010DT83;CCR;"C&C Group PLC";EUR;;;Ireland;LSE;LSE
IE00B3CLK236;SLGYF;"San Leon Energy plc";USD;;;USA;US;US
IE00BD5B1Y92;BOCH;"Bank of Cyprus Holdings Public Limited Company";EUR;;;UK;LSE;LSE
IE00BD845X29;ADNT;"Adient plc";USD;;;USA;US;US
IE00BDB6Q211;WLTW;"Willis Towers Watson Public Limited Company";USD;;;USA;US;US
USG966661054;WLTW;"Willis Towers Watson Public Limited Company";USD;;;USA;US;US
IE00BH3XCL94;EQT;"EQTEC plc";GBX;;;UK;LSE;LSE
IE00BJ3V9050;ENDP;"Endo International plc";USD;;;USA;US;US
USG304011061;ENDP;"Endo International plc";USD;;;USA;US;US
IE00BKYC3F77;CMPR;"Cimpress PLC";USD;;;Ireland;"NASDAQ NMS - GLOBAL MARKET";"NASDAQ NMS - GLOBAL MARKET"
GB00B5BT0K07;AON;"Aon Plc";USD;;;USA;US;US
USG0408V1029;AON;"Aon Plc";USD;;;USA;US;US
IE00BWT6H894;FLTR;"Flutter Entertainment plc";EUR;;;Ireland;IR;IR
IE00BWY4ZF18;CRN;"Cairn Homes plc";EUR;;;UK;LSE;LSE
IE00BY7QL619;JCI;"Johnson Controls International plc";USD;;;USA;US;US
US4783661071;JCI;"Johnson Controls International plc";USD;;;USA;US;US
IE00BYTBXV33;RY4C;"Ryanair Holdings plc";EUR;;;Ireland;IR;IR
IE00BZ12WP82;LIN;"Linde plc";USD;;;USA;US;US
IE00BZ12WP82;LIN;"Linde plc";EUR;;;Germany;XETRA;XETRA
IL0010849045;BVC;"BATM Advanced Communications Ltd";GBX;;;UK;LSE;LSE
IL0011284465;PLUS;"Plus500 Ltd";GBX;;;UK;LSE;LSE
IL0011320343;TRMR;"Tremor International Ltd";GBX;;;UK;LSE;LSE
IM00B5VQMV65;GVC;"GVC Holdings PLC";GBX;;;UK;LSE;LSE
IM00B7S9G985;PTEC;"Playtech plc";GBX;;;UK;LSE;LSE
IM00BF0FMG91;KETL;"Strix Group Plc";GBX;;;UK;LSE;LSE
IM00BH3JLY32;RPL;"RDI REIT P.L.C";ZAR;;;"South Africa";JSE;JSE
IM00BH3JLY32;RDI;"RDI REIT P.L.C";GBX;;;UK;LSE;LSE
IM00BH3JLY32;RDIRF;"RDI REIT P.L.C";USD;;;USA;US;US
IT0000062072;G;"Assicurazioni Generali S.p.A";EUR;;;Italy;MI;MI
IT0000062957;MB;"Mediobanca Banca di Credito Finanziario S.p.A";EUR;;;Italy;MI;MI
IT0000066123;BPE;"BPER Banca S.p.A";EUR;;;Italy;MI;MI
IT0005252140;SPM;"Saipem SpA";EUR;;;Italy;MI;MI
IT0000068525;SAPMY;"Saipem SpA";USD;;;USA;US;US
IT0000068525;SAPMF;"Saipem SpA";USD;;;USA;US;US
IT0000072170;FBK;"FinecoBank Banca Fineco S.p.A";EUR;;;Italy;MI;MI
IT0000072618;ISP;"Intesa Sanpaolo S.p.A";EUR;;;Italy;MI;MI
IT0000076536;SO;"Sogefi S.p.A";EUR;;;Italy;MI;MI
IT0000336518;JUVE;"Juventus Football Club S.p.A";EUR;;;Italy;MI;MI
IT0000433307;SRS;"Saras S.p.A";EUR;;;Italy;MI;MI
IT0000784154;CASS;"Società Cattolica di Assicurazione - Società Cooperativa";EUR;;;Italy;MI;MI
IT0000784196;BPSO;"Banca Popolare di Sondrio S.C.p.A";EUR;;;Italy;MI;MI
IT0001031084;BGN;"Banca Generali S.p.A";EUR;;;Italy;MI;MI
IT0001044996;DOV;"doValue SpA";EUR;;;Italy;"MARKET FOR INVESTMENT VEHICULES";"MARKET FOR INVESTMENT VEHICULES"
IT0001046553;CARR;"Carraro S.p.A";EUR;;;Italy;MI;MI
IT0001049623;IMA;"I.M.A. Industria Macchine Automatiche S.p.A";EUR;;;Italy;MI;MI
IT0001055521;LD;"La Doria S.p.A";EUR;;;Italy;MI;MI
IT0001063210;MS;"Mediaset S.p.A";EUR;;;Italy;MI;MI
IT0001078911;IP;"Interpump Group S.p.A";EUR;;;Italy;MI;MI
IT0001080248;MLM;"MolMed S.p.A";EUR;;;Italy;MI;MI
IT0001137345;AGL;"Autogrill S.p.A";EUR;;;Italy;MI;MI
IT0001157020;ERG;"ERG S.p.A";EUR;;;Italy;MI;MI
IT0001233417;A2A;"A2A S.p.A";EUR;;;Italy;MI;MI
IT0001250932;HER;"Hera S.p.A";EUR;;;Italy;MI;MI
IT0001347308;BZU;"Buzzi Unicem S.p.A";EUR;;;Italy;MI;MI
IT0001350625;OLI;"OLIDATA SpA";EUR;;;Italy;"MARKET FOR INVESTMENT VEHICULES";"MARKET FOR INVESTMENT VEHICULES"
IT0001398541;GEDI;"GEDI Gruppo Editoriale S.p.A";EUR;;;Italy;MI;MI
IT0001415246;FCT;"Fincantieri S.p.A";EUR;;;Italy;MI;MI
IT0001446613;CHL;"Centro HL Distribuzione SpA";EUR;;;Italy;"MARKET FOR INVESTMENT VEHICULES";"MARKET FOR INVESTMENT VEHICULES"
IT0001447785;MTV;"Mondo TV S.p.A";EUR;;;Italy;MI;MI
IT0001454435;TXT;"TXT e-solutions S.p.A";EUR;;;Italy;MI;MI
IT0001467577;PAN;"Panariagroup Industrie Ceramiche S.p.A";EUR;;;Italy;MI;MI
IT0001469383;MN;"Arnoldo Mondadori Editore S.p.A";EUR;;;Italy;MI;MI
IT0001469953;ACO;"Acotel Group SpA";EUR;;;Italy;MI;MI
IT0001469995;DIB;"Digital Bros S.p.A";EUR;;;Italy;MI;MI
IT0003007728;TOD;"TOD'S S.p.A";EUR;;;Italy;MI;MI
IT0003027817;IRE;"Iren SpA";EUR;;;Italy;MI;MI
IT0003056386;PINF;"Pininfarina S.p.A";EUR;;;Italy;MI;MI
IT0003073266;PIA;"Piaggio & C. SpA";EUR;;;Italy;MI;MI
IT0003097257;BSS;"Biesse S.p.A";EUR;;;Italy;MI;MI
IT0003128367;ENEL;"Enel SpA";EUR;;;Italy;MI;MI
IT0003132476;ENI;"Eni S.p.A";EUR;;;Italy;MI;MI
IT0003153415;SRG;"Snam S.p.A";EUR;;;Italy;MI;MI
IT0003153621;TIP;"Tamburi Investment Partners S.p.A";EUR;;;Italy;MI;MI
IT0003188064;IF;"Banca IFIS S.p.A";EUR;;;Italy;MI;MI
IT0003198790;FKR;"Falck Renewables S.p.A";EUR;;;Italy;MI;MI
IT0003203947;GE;"Gefran S.p.A";EUR;;;Italy;MI;MI
IT0003242622;TRN;"Terna - Rete Elettrica Nazionale Società per Azioni";EUR;;;Italy;MI;MI
IT0003261069;AST;"Astaldi S.p.A";EUR;;;Italy;MI;MI
IT0003261697;AZM;"Azimut Holding S.p.A";EUR;;;Italy;MI;MI
IT0003365613;FM;"Fiera Milano SpA";EUR;;;Italy;MI;MI
IT0003428445;MARR;"MARR S.p.A";EUR;;;Italy;MI;MI
IT0003487029;UBI;"Unione di Banche Italiane S.p.A";EUR;;;Italy;MI;MI
IT0003492391;DIA;"DiaSorin S.p.A";EUR;;;Italy;MI;MI
IT0003497168;TIT;"Telecom Italia S.p.A";EUR;;;Italy;MI;MI
IT0003506190;ATL;"Atlantia SpA";EUR;;;Italy;MI;MI
IT0003621783;SSL;"S.S. Lazio S.p.A";EUR;;;Italy;MI;MI
IT0003697080;GEO;"Geox S.p.A";EUR;;;Italy;MI;MI
IT0003796171;PST;"Poste Italiane SpA";EUR;;;Italy;MI;MI
IT0003828271;REC;"Recordati Industria Chimica e Farmaceutica S.p.A";EUR;;;Italy;MI;MI
IT0003850929;PRT;"Esprinet S.p.A";EUR;;;Italy;MI;MI
IT0003856405;LDO;"Leonardo S.p.a";EUR;;;Italy;MI;MI
IT0003865570;WBD;"Webuild SpA";EUR;;;Italy;"MARKET FOR INVESTMENT VEHICULES";"MARKET FOR INVESTMENT VEHICULES"
IT0003895668;ETH;"Eurotech S.p.A";EUR;;;Italy;MI;MI
IT0004007560;PRL;"Pierrel S.p.A";EUR;;;Italy;MI;MI
IT0004053440;DAL;"Datalogic S.p.A";EUR;;;Italy;MI;MI
IT0004056880;AMP;"Amplifon S.p.A";EUR;;;Italy;MI;MI
IT0004095888;BCM;"Biancamano S.p.A";EUR;;;Italy;MI;MI
IT0004176001;PRY;"Prysmian S.p.A";EUR;;;Italy;MI;MI
IT0004210289;LR;"Landi Renzo S.p.A";EUR;;;Italy;MI;MI
IT0004329733;CAI;"Cairo Communication S.p.A";EUR;;;Italy;MI;MI
IT0004370463;LIT;"Retelit S.p.A";EUR;;;Italy;MI;MI
IT0004496029;EXSY;"Expert System S.p.A";EUR;;;Italy;MI;MI
IT0004513666;TIS;"Tiscali Spa";EUR;;;Italy;MI;MI
IT0004604762;SFL;"Safilo Group S.p.A";EUR;;;Italy;MI;MI
IT0004607518;STEF;"Stefanel SpA";EUR;;;Italy;"MARKET FOR INVESTMENT VEHICULES";"MARKET FOR INVESTMENT VEHICULES"
IT0004615396;ALMTH;"Methorios Capital SpA";EUR;;;Italy;"NYSE EURONEXT - EURONEXT PARIS";"NYSE EURONEXT - EURONEXT PARIS"
IT0004712375;SFER;"Salvatore Ferragamo S.p.A";EUR;;;Italy;MI;MI
IT0004729759;SES;"SeSa S.p.A";EUR;;;Italy;MI;MI
IT0004764699;BC;"Brunello Cucinelli S.p.A";EUR;;;Italy;MI;MI
IT0004776628;BMED;"Banca Mediolanum S.p.A";EUR;;;Italy;MI;MI
IT0004781412;CRIN;"UniCredit SpA";EUR;;;Germany;XETRA;XETRA
IT0004810054;UNI;"Unipol Gruppo S.p.A";EUR;;;Italy;MI;MI
IT0004819030;NTW;"Netweek SpA";EUR;;;Italy;"MARKET FOR INVESTMENT VEHICULES";"MARKET FOR INVESTMENT VEHICULES"
IT0004822695;PRM;"Prismi S.p.A";EUR;;;Italy;MI;MI
IT0004827447;US;"UnipolSai Assicurazioni S.p.A";EUR;;;Italy;MI;MI
IT0004931058;MT;"Maire Tecnimont S.p.A";EUR;;;Italy;MI;MI
IT0004931496;RCS;"RCS MediaGroup S.p.A";EUR;;;Italy;MI;MI
IT0004965148;MONC;"Moncler S.p.A";EUR;;;Italy;MI;MI
IT0004967292;FILA;"F.I.L.A. - Fabbrica Italiana Lapis ed Affini S.p.A";EUR;;;Italy;MI;MI
IT0004998065;ANIM;"Anima Holding S.p.A";EUR;;;Italy;MI;MI
IT0005010423;CERV;"Cerved Group S.p.A";EUR;;;Italy;MI;MI
IT0005013013;LVEN;"LVenture Group S.p.A";EUR;;;Italy;MI;MI
IT0005038002;GO;"GO internet S.p.A";EUR;;;Italy;MI;MI
IT0005042467;MZB;"Massimo Zanetti Beverage Group S.p.A";EUR;;;Italy;MI;MI
IT0005043507;OVS;"OVS S.p.A";EUR;;;Italy;MI;MI
IT0005084717;EPR;"ePRICE S.p.A";EUR;;;Italy;MI;MI
IT0005091324;CLA;"Clabo S.p.A";EUR;;;Italy;MI;MI
IT0005108763;CRG;"Banca Carige SpA Cassa di Risparmio di Genova e Imperia";EUR;;;Italy;"MARKET FOR INVESTMENT VEHICULES";"MARKET FOR INVESTMENT VEHICULES"
IT0005162406;TGYM;"Technogym S.p.A";EUR;;;Italy;MI;MI
IT0005188336;ELN;"EL.En. S.p.A";EUR;;;Italy;MI;MI
IT0005211237;IG;"Italgas S.p.A";EUR;;;Italy;MI;MI
IT0005218380;BAMI;"Banco BPM Società per Azioni";EUR;;;Italy;MI;MI
IT0005218752;BMPS;"Banca Monte dei Paschi di Siena S.p.A";EUR;;;Italy;MI;MI
IT0005239360;UCG;"UniCredit S.p.A";EUR;;;Italy;MI;MI
IT0005239881;UNIR;"Unieuro S.p.A";EUR;;;Italy;MI;MI
IT0005244402;BFF;"Banca Farmafactoring S.p.A";EUR;;;Italy;MI;MI
IT0005252140;SPM;"Saipem SpA";EUR;;;Italy;MI;MI
IT0005252207;CPR;"Davide Campari-Milano N.V";EUR;;;Italy;MI;MI
IT0005252728;BRE;"Brembo S.p.A";EUR;;;Italy;MI;MI
IT0005278236;PIRC;"Pirelli & C. S.p.A";EUR;;;Italy;MI;MI
IT0005319444;CVAL;"Credito Valtellinese S.p.A";EUR;;;Italy;MI;MI
IT0005322612;IGD;"Immobiliare Grande Distribuzione SIIQ S.p.A";EUR;;;Italy;MI;MI
IT0005359192;ILTY;"illimity Bank SpA";EUR;;;Italy;"MARKET FOR INVESTMENT VEHICULES";"MARKET FOR INVESTMENT VEHICULES"
IT0005390965;TFI;"Trevi Finanziaria Industriale SpA";EUR;;;Italy;"MARKET FOR INVESTMENT VEHICULES";"MARKET FOR INVESTMENT VEHICULES"
JE00BYPZJM29;JHG;"Janus Henderson Group plc";USD;;;USA;US;US
US00BYPZJM28;JHG;"Janus Henderson Group plc";USD;;;USA;US;US
JE00B4MFKH73;LXB;"LXB Retail Properties Plc";GBP;;;UK;LSE;LSE
JE00B4T3BW64;GLEN;"Glencore plc";GBX;;;UK;LSE;LSE
JE00B55Q3P39;GENL;"Genel Energy plc";GBX;;;UK;LSE;LSE
JE00B5TT1872;CEY;"Centamin plc";GBX;;;UK;LSE;LSE
JE00B5TT1872;CEE;"Centamin plc";CAD;;;Canada;TO;TO
JE00B6T5S470;POLY;"Polymetal International plc";GBX;;;UK;LSE;LSE
JE00B6Y3DV84;WAND;"WANdisco plc";GBX;;;UK;LSE;LSE
JE00B8KF9B49;WPP;"WPP plc";GBX;;;UK;LSE;LSE
JE00BD3QJR55;FSFL;"Foresight Solar Fund Limited";GBX;;;UK;LSE;LSE
JE00BF4X3P53;JTC;"JTC PLC";GBX;;;UK;LSE;LSE
JE00BJVNSS43;FERG;"Ferguson plc";GBX;;;UK;LSE;LSE
JE00BFNWV485;FERGY;"Ferguson plc";USD;;;USA;US;US
JE00BFNWV485;WOSCF;"Ferguson plc";USD;;;USA;US;US
JE00BG6L7297;BOO;"boohoo group plc";GBX;;;UK;LSE;LSE
JE00BGP63272;SFE;"Safestyle UK plc";GBX;;;UK;LSE;LSE
GB00B83VD954;EMG;"Man Group plc";GBX;;;UK;LSE;LSE
JE00BJ1DLW90;MNGPF;"Man Group plc";USD;;;USA;US;US
JE00BMH4MR96;MYSL;"MySale Group plc";GBX;;;UK;LSE;LSE
JE00BN574F90;WIZZ;"Wizz Air Holdings Plc";GBX;;;UK;LSE;LSE
JE00BVRZ8S85;SNN;"Sanne Group plc";GBX;;;UK;LSE;LSE
JE00BYPZJM29;JHG;"Janus Henderson Group plc";USD;;;USA;US;US
US00BYPZJM28;JHG;"Janus Henderson Group plc";USD;;;USA;US;US
JE00BYVQYS01;IWG;"IWG plc";GBX;;;UK;LSE;LSE
JE00BZ00SF59;QUIZ;"QUIZ plc";GBX;;;UK;LSE;LSE
JP3268200007;2695;"Kura Sushi,Inc";JPY;;;Japan;TSE;TSE
JP3325200008;6584;"Sanoh Industrial Co., Ltd";JPY;;;Japan;TSE;TSE
JP3539350003;4331;"Take and Give. Needs Co., Ltd";JPY;;;Japan;TSE;TSE
JP3691600005;4092;"Nippon Chemical Industrial Co., Ltd";JPY;;;Japan;TSE;TSE
JP3833300001;3254;"Pressance Corporation";JPY;;;Japan;TSE;TSE
KYG4672N1016;HCM;"Hutchison China MediTech Limited";GBX;;;UK;LSE;LSE
KYG4672N1198;HCM;"Hutchison China MediTech Ltd";USD;;;"Hong Kong";LSE;LSE
KYG4740B1059;ICHR;"Ichor Holdings Ltd";USD;;;"United States of America";US;US
GB00BGXQNP29;PHNX;"Phoenix Group Holdings plc";GBX;;;UK;LSE;LSE
KYG7091M1096;PHNX;"Phoenix Group Holdings plc";GBX;;;UK;LSE;LSE
LU0061462528;RRTL;"RTL Group S.A";EUR;;;Germany;XETRA;XETRA
LU0156801721;TEN;"Tenaris S.A";EUR;;;Italy;MI;MI
LU0290697514;DIS;"d'Amico International Shipping S.A";EUR;;;Italy;MI;MI
LU0307018795;SFQ;"SAF-Holland SE";EUR;;;Germany;XETRA;XETRA
LU0445408270;ASPS;"Altisource Portfolio Solutions SA";USD;;;Luxembourg;"NASDAQ NMS - GLOBAL MARKET";"NASDAQ NMS - GLOBAL MARKET"
LU0775917882;GYC;"Grand City Properties S.A";EUR;;;Germany;XETRA;XETRA
LU1048328220;EDR;"eDreams ODIGEO S.A";EUR;;;Spain;MC;MC
LU1066226637;STM;"Stabilus S.A";EUR;;;Germany;XETRA;XETRA
LU1072616219;BME;"B&M European Value Retail S.A";GBX;;;UK;LSE;LSE
LU1250154413;ADJ;"ADO Properties S.A";EUR;;;Germany;XETRA;XETRA
LU1296758029;CCAP;"Corestate Capital Holding SA";EUR;;;Luxembourg;XETRA;XETRA
LU1673108939;AT1;"Aroundtown SA";EUR;;;Germany;XETRA;XETRA
LU1701428291;NEXA;"Nexa Resources S.A";CAD;;;Canada;TO;TO
LU1701428291;NEXA;"Nexa Resources S.A";USD;;;USA;US;US
US65342X1072;NEXA;"Nexa Resources S.A";USD;;;USA;US;US
MX41BS060005;BSMXB;"Banco Santander México, S.A., Institución de Banca Múltiple, Grupo Financiero Santander México";MXN;;;Mexico;MX;MX
ES0113900J37;SAN;"Banco Santander, S.A";EUR;;;Spain;MC;MC
US05964H1059;SAN;"Banco Santander, S.A";USD;;;USA;US;US
US05967A1079;BSBR;"Banco Santander (Brasil) S.A";USD;;;USA;US;US
USP690491415;BSMX;"Banco Santander México, S.A., Institución de Banca Múltiple, Grupo Financiero Santander México";USD;;;USA;US;US
ARBRIO010194;BRIO;"Banco Santander Río S.A";ARS;;;Argentina;BA;BA
BRSANBACNPR5;SANB4;"Banco Santander (Brasil) S.A";BRL;;;Brazil;SA;SA
NL0000226223;STM;"STMicroelectronics N.V";EUR;;;Italy;MI;MI
NL0000226223;STM;"STMicroelectronics N.V";EUR;;;France;PA;PA
NL0012169213;QGEN;"QIAGEN N.V";USD;;;USA;US;US
USN724821079;QGEN;"QIAGEN N.V";USD;;;USA;US;US
NL0000240000;QIA;"QIAGEN N.V";EUR;;;Germany;XETRA;XETRA
NL0000240000;QIA;"QIAGEN N.V";EUR;;;Germany;F;F
NL0010545661;CNHI;"CNH Industrial N.V";EUR;;;Italy;MI;MI
NL0010776944;BRNL;"Brunel International N.V";EUR;;;Netherlands;AS;AS
NL0010877643;FCA;"Fiat Chrysler Automobiles N.V";EUR;;;Italy;MI;MI
NL0011375019;SNH;"Steinhoff International Holdings N.V";ZAR;;;"South Africa";JSE;JSE
NL0011585146;RACE;"Ferrari N.V";EUR;;;Italy;MI;MI
NL0011585146;RACE;"Ferrari N.V";USD;;;USA;US;US
USN3167Y1030;RACE;"Ferrari N.V";USD;;;USA;US;US
NL0011832936;COPN;"Cosmo Pharmaceuticals N.V";CHF;;;Switzerland;SW;SW
NL0012044747;SAE;"Shop Apotheke Europe N.V";EUR;;;Germany;XETRA;XETRA
NL0012169213;QGEN;"QIAGEN N.V";USD;;;USA;US;US
USN724821079;QGEN;"QIAGEN N.V";USD;;;USA;US;US
NL0012328801;DPEU;"DP Eurasia N.V";GBX;;;UK;LSE;LSE
NL0012866412;BESI;"BE Semiconductor Industries N.V";EUR;;;Netherlands;AS;AS
NL0015435975;CPR;"Davide Campari Milano NV";EUR;;;Italy;"MARKET FOR INVESTMENT VEHICULES";"MARKET FOR INVESTMENT VEHICULES"
PA5800371096;MDR;"McDermott International, Inc";USD;;;USA;US;US
US5800371099;MDR;"McDermott International, Inc";USD;;;USA;US;US
PAL1201471A1;MDRIQ;"McDermott International, Inc";USD;;;USA;US;US
SE0000412371;MTG-B;"Modern Times Group Mtg AB";SEK;;;Sweden;ST;ST
SE0001174970;TIGO-SDB;"Millicom International Cellular S.A";SEK;;;Sweden;ST;ST
SE0002683557;LOOM-B;"Loomis AB (publ)";SEK;;;Sweden;ST;ST
SG9999003735;XPP;"XP Power Limited";GBX;;;UK;LSE;LSE
US00401C1080;ACIA;"Acacia Communications, Inc";USD;;;USA;US;US
US0044685008;ACHV;"Achieve Life Sciences, Inc";USD;;;USA;US;US
US00507W1071;ATNM;"Actinium Pharmaceuticals, Inc";USD;;;USA;US;US
US00507W2061;ATNWW;"Actinium Pharmaceuticals, Inc";USD;;;USA;US;US
US0076241092;ADXS;"Advaxis, Inc";USD;;;USA;US;US
US00771V1089;AERI;"Aerie Pharmaceuticals, Inc";USD;;;USA;US;US
US0138171014;AA;"Alcoa Corporation";USD;;;USA;US;US
US0138721065;AA;"Alcoa Corporation";USD;;;USA;US;US
US02874P1030;AOBC;"Smith & Wesson Brands, Inc";USD;;;USA;US;US
US03168L1052;AMRX;"Amneal Pharmaceuticals, Inc";USD;;;USA;US;US
US0327241065;ANAB;"AnaptysBio, Inc";USD;;;USA;US;US
US03836N1037;APTX;"Aptinyx Inc";USD;;;USA;US;US
US03965L1008;ARNC;"Arconic Corporation";USD;;;USA;US;US
US05337M1045;AVDL;"Avadel Pharmaceuticals plc";USD;;;USA;US;US
US05614L2097;BW;"Babcock & Wilcox Enterprises Inc";USD;;;"United States of America";US;US
US0794811077;BLCM;"Bellicum Pharmaceuticals, Inc";USD;;;USA;US;US
US0794814048;BPX;"Bellicum Pharmaceuticals, Inc";EUR;;;Germany;F;F
US09523Q2003;APRN;"Blue Apron Holdings, Inc.";USD;;;"United States of America";US;US
US09624H2085;BXC;"Bluelinx Holdings Inc";USD;;;"United States of America";US;US
US12648L6011;CTIC;"CTI BioPharma Corp";USD;;;USA;US;US
US12648L6011;CTIC;"CTI BioPharma Corp";USD;;;USA;US;US
US14161W1053;CDLX;"Cardlytics, Inc";USD;;;USA;US;US
US14575E1055;CARS;"Cars.com Inc";USD;;;USA;US;US
US14817C1071;SAVA;"Cassava Sciences, Inc";USD;;;USA;US;US
US14875P1075;CATB;"Catabasis Pharmaceuticals, Inc";USD;;;USA;US;US
US14875P2065;209A;"Catabasis Pharmaceuticals, Inc";EUR;;;Germany;F;F
US12648L6011;CTIC;"CTI BioPharma Corp";USD;;;USA;US;US
US15117B1035;CLDX;"Celldex Therapeutics, Inc";USD;;;USA;US;US
US15942R2085;CHAPQ;"Chaparral Energy, Inc";USD;;;USA;US;US
US15942R2085;CHAP;"Chaparral Energy, Inc";USD;;;USA;US;US
US1858991011;CLF;"Cleveland-Cliffs Inc";USD;;;USA;US;US
US18683K1016;CLF;"Cleveland-Cliffs Inc";USD;;;USA;US;US
US2267181046;CRTO;"Criteo S.A";USD;;;USA;US;US
US2312691015;CRIS;"Curis, Inc";USD;;;USA;US;US
US2312692005;CUSA;"Curis, Inc";EUR;;;Germany;F;F
US23283R1005;CONE;"CyrusOne Inc";USD;;;USA;US;US
US23753F1075;DSKE;"Daseke, Inc";USD;;;USA;US;US
US23334L1026;DBI;"Designer Brands Inc";USD;;;USA;US;US
US2505651081;D9W;"Designer Brands Inc";EUR;;;Germany;F;F
US2536511031;DBD;"Diebold Nixdorf, Incorporated";USD;;;USA;US;US
US2561631068;DOCU;"DocuSign, Inc";USD;;;USA;US;US
US2561631068;DS3;"DocuSign, Inc";EUR;;;Germany;F;F
US25985W1053;DOYU;"Douyu International Holdings Ltd";CNY;;;China;"NASDAQ NMS - GLOBAL MARKET";"NASDAQ NMS - GLOBAL MARKET"
US26856L1035;ELF;"e.l.f. Beauty, Inc";USD;;;USA;US;US
US26884U1097;EPR;"EPR Properties";USD;;;USA;US;US
US2946001011;ETRN;"Equitrans Midstream Corporation";USD;;;USA;US;US
US30233G1004;EYPT;"EyePoint Pharmaceuticals, Inc";USD;;;USA;US;US
US30233G1004;PV3A;"EyePoint Pharmaceuticals, Inc";EUR;;;Germany;F;F
US3503921062;FBM;"Foundation Building Materials, Inc";USD;;;USA;US;US
US3517932030;FRAN;"Francesca's Holdings Corp";USD;;;"United States of America";US;US
US35906A3068;FTRCQ;"Frontier Communications Corporation";USD;;;USA;US;US
US38741L1070;GPMT;"Granite Point Mortgage Trust Inc";USD;;;USA;US;US
US3994731079;GRPN;"Groupon, Inc";USD;;;USA;US;US
US3994732069;G5N;"Groupon, Inc";EUR;;;Germany;F;F
US3994732069;G5N;"Groupon Inc";EUR;;;Germany;XETRA;XETRA
US42806J1060;HTZ;"Hertz Global Holdings, Inc";USD;;;USA;US;US
US4424872038;HOV;"Hovnanian Enterprises, Inc";USD;;;USA;US;US
US4424871121;HOVNP;"Hovnanian Enterprises, Inc. PFD DEP1/1000A";USD;;;USA;US;US
US4424873028;HOVVB;"Hovnanian Enterprises, Inc";USD;;;USA;US;US
US4510551074;ICON;"Iconix Brand Group, Inc";USD;;;USA;US;US
US4532011099;PI;"Impinj, Inc";USD;;;USA;US;US
US4577301090;INSP;"Inspire Medical Systems, Inc";USD;;;USA;US;US
US46137V8110;PTF;"Invesco DWA Technology Momentum ETF";USD;;;USA;US;US
US73935X3448;PTF;"Invesco DWA Technology Momentum ETF";USD;;;USA;US;US
US46138B1035;DBC;"Invesco DB Commodity Index Tracking Fund";USD;;;USA;US;US
US7393581050;DBC;"Invesco DB Commodity Index Tracking Fund";USD;;;USA;US;US
US73935S1050;DBC;"Invesco DB Commodity Index Tracking Fund";USD;;;USA;US;US
US46138E3707;SPHB;"Invesco S&P 500 High Beta ETF";USD;;;USA;US;US
US73937B8292;SPHB;"Invesco S&P 500 High Beta ETF";USD;;;USA;US;US
US23129S1069;FXB;"Invesco CurrencyShares British Pound Sterling Trust";USD;;;USA;US;US
US46138M1099;FXB;"Invesco CurrencyShares British Pound Sterling Trust";USD;;;USA;US;US
US46138W1071;FXY;"Invesco CurrencyShares Japanese Yen Trust";MXN;;;Mexico;MX;MX
US23130A1025;FXY;"Invesco CurrencyShares Japanese Yen Trust";USD;;;USA;US;US
US46138W1071;FXY;"Invesco CurrencyShares Japanese Yen Trust";USD;;;USA;US;US
US46140H1068;DBA;"Invesco DB Agriculture Fund";USD;;;USA;US;US
US73936B4086;DBA;"Invesco DB Agriculture Fund";USD;;;USA;US;US
US47759T1007;JKS;"JinkoSolar Holding Co., Ltd";USD;;;USA;US;US
US5288771034;LX;"Lexinfintech Holdings Ltd";CNY;;;China;"NASDAQ NMS - GLOBAL MARKET";"NASDAQ NMS - GLOBAL MARKET"
US53223X1072;LSI;"Life Storage, Inc";USD;;;USA;US;US
US53632A1025;LIQT;"LiqTech International, Inc";USD;;;USA;US;US
US53814L1089;LTHM;"Livent Corporation";USD;;;USA;US;US
US54951L1098;LKNCY;"Luckin Coffee Inc";USD;;;USA;US;US
US54951L1098;LK;"Luckin Coffee Inc";USD;;;USA;US;US
US5588681057;MDGL;"Madrigal Pharmaceuticals, Inc";USD;;;USA;US;US
US58513U1016;MEET;"The Meet Group, Inc";USD;;;USA;US;US
US62914V1061;NIO;"NIO Inc";CNY;;;China;US;US
US67011P1003;DNOW;"NOW Inc";USD;;;USA;US;US
US67059N1081;NTNX;"Nutanix, Inc";USD;;;USA;US;US
US68232V3069;ONTX;"Onconova Therapeutics, Inc";USD;;;USA;US;US
US68234L2079;ONCS;"OncoSec Medical Incorporated";USD;;;USA;US;US
US68404V1008;OPTN;"OptiNose, Inc";USD;;;USA;US;US
US7172241090;PHAS;"PhaseBio Pharmaceuticals, Inc";USD;;;USA;US;US
US74737V1061;PYXSQ;"Pyxus International Inc";USD;;;"United States of America";US;US
US74967X1037;RH;RH;USD;;;USA;US;US
US7612831005;RH;RH;USD;;;USA;US;US
US75704L1044;RDVT;"Red Violet, Inc";USD;;;USA;US;US
US75915K1016;RGLS;"Regulus Therapeutics Inc";USD;;;USA;US;US
US7677541044;RAD;"Rite Aid Corporation";USD;;;USA;US;US
US7677548726;RTA1;"Rite Aid Corporation";EUR;;;Germany;F;F
US79400X1072;SLRX;"Salarius Pharmaceuticals, Inc";USD;;;USA;US;US
US81617J2024;WTTR;"Select Energy Services, Inc";USD;;;USA;US;US
US81617J3014;WTTR;"Select Energy Services, Inc";USD;;;USA;US;US
US81642T1007;SLS;"SELLAS Life Sciences Group, Inc";USD;;;USA;US;US
US83410S1087;SOHU;"Sohu.com Ltd";USD;;;China;"NASDAQ NMS - GLOBAL MARKET";"NASDAQ NMS - GLOBAL MARKET"
US86804F2020;SLGG;"Super League Gaming, Inc";USD;;;USA;US;US
US86804F2020;8LG;"Super League Gaming, Inc";EUR;;;Germany;F;F
US8742242071;TLND;"Talend S.A";USD;;;USA;US;US
US88165N1054;TTPH;"Tetraphase Pharmaceuticals, Inc";USD;;;USA;US;US
US88339J1051;TTD;"The Trade Desk, Inc";USD;;;USA;US;US
USJ821411368;TTD;"The Trade Desk, Inc";USD;;;USA;US;US
US89785L1070;TRUE;"TrueCar, Inc";USD;;;USA;US;US
US20341J1043;UNIT;"Uniti Group Inc";USD;;;USA;US;US
US91325V1089;UNIT;"Uniti Group Inc";USD;;;USA;US;US
US9285511005;VVUS;"VIVUS, Inc";USD;;;USA;US;US
US9285513084;VVUSQ;"VIVUS, Inc";USD;;;USA;US;US
US9307521008;WTRH;"Waitr Holdings Inc";USD;;;"United States of America";US;US
USU7744C1063;BOKU;"Boku, Inc";GBX;;;UK;LSE;LSE
VGG0472G1063;I3A1;"Arian Silver Corporation";EUR;;;Germany;STU;STU
VGG379591065;GEMD;"Gem Diamonds Limited";GBX;;;UK;LSE;LSE
DE000A161N30;GLJ;"Grenke AG";EUR;;;Germany;XETRA;XETRA
XS1689189501;GLJ;"Grenke AG";EUR;;;Germany;F;F
XS1689189501;GKSGF;"Grenke AG";USD;;;USA;US;US
ZAE000255360;OMU;"Old Mutual Limited";ZAR;;;"South Africa";JSE;JSE
