CA26154A1066,"DREAM GLOBAL REIT"
DE000A2E4L75,"Linde Aktiengesellschaft"
DE0007289001,"STRATEC Biomedical AG"
DE0007198806,"Schön & Cie Aktiengesellschaft"
NL0010831061,"Mobileye N.V."
GB00B4VLR192,"Ensco plc"
GB00B4VLR192,"Ensco Plc"
AT00BUWOG001,"BUWOG AG"
GB00B61G9L20,"DAISY GROUP PLC"
IT0003270615,"Prelios Spa"
US7750431022,"Rofin-Sinar Technologies Inc."
DE000A0M6M79,"Asian Bamboo AG"
