Symbol	N	L +/-	L +/-%	Bid	Ask	Last	L	Open	High	Low	Volume	Time	ISIN	Description
ALK B		-4,00	-0,142%	2800,00	2804,00	2804,00		2810,00	2842,00	2776,00	7441	12:06:42	DK0060027142	ALK-Abelló B
ALMB		0,60	0,822%	73,60	73,80	73,60		73,00	74,20	73,00	207741	12:04:44	DK0015250344	Alm. Brand
AMBU B		9,40	2,941%	328,80	329,20	329,00		319,30	331,70	319,30	215503	12:09:05	DK0060946788	Ambu
CARL A		10,00	0,901%	1120,00	1125,00	1120,00		1110,00	1120,00	1110,00	374	12:02:23	DK0010181676	Carlsberg A
CARL B		1,20	0,124%	966,60	966,80	966,60		965,40	974,00	962,40	57535	12:08:47	DK0010181759	Carlsberg B
CHR		2,20	0,392%	563,00	563,40	563,20		560,60	565,40	558,80	97729	12:07:16	DK0060227585	Chr. Hansen Holding
COLO B		5,50	0,535%	1033,50	1034,00	1033,50		1026,00	1039,50	1025,75	42241	12:08:54	DK0060448595	Coloplast B
DANSKE		-0,50	-0,456%	109,20	109,25	109,25		109,75	109,95	109,05	422398	12:09:07	DK0010274414	Danske Bank
DEMANT		6,50	2,534%	262,90	263,10	263,00		258,20	263,60	255,30	138004	12:07:33	DK0060738599	Demant
DFDS		-3,00	-1,096%	270,20	270,60	270,60		273,60	275,00	270,20	45782	12:09:16	DK0060655629	DFDS
DRLCO		0,60	0,287%	209,40	210,00	209,60		210,40	213,60	206,80	116006	12:08:06	DK0061135753	Drilling Company of 1972
DSV		47,00	4,421%	1110,00	1110,50	1110,00		1070,00	1112,00	1066,00	323057	12:09:08	DK0060079531	DSV Panalpina
FLS		1,80	0,819%	221,30	221,70	221,60		220,00	222,00	218,40	168061	12:08:06	DK0010234467	FLSmidth & Co.
G4S		0,15	0,668%	22,60	22,65	22,60		22,25	22,70	22,00	57411	12:08:11	GB00B01FLG62	G4S plc
GMAB		8,00	0,320%	2509,00	2511,00	2510,00		2506,00	2527,00	2504,00	26072	12:09:15	DK0010272202	Genmab
GN		27,20	5,282%	542,00	542,60	542,20		520,00	546,00	518,60	261160	12:09:09	DK0010272632	GN Store Nord
ISS		3,85	3,565%	111,85	111,90	111,85		108,05	112,25	108,00	783296	12:08:40	DK0060542181	ISS
JDAN		-3,00	-1,154%	256,00	258,00	257,00		257,00	257,00	255,00	5552	11:22:16	DK0061282464	Jeudan
JYSK		0,60	0,242%	249,00	249,10	248,90		248,00	249,70	246,80	60361	12:08:46	DK0010307958	Jyske Bank
KBHL		60,00	1,091%	5500,00	5560,00	5560,00		5500,00	5560,00	5500,00	14	11:31:09	DK0010201102	Københavns Lufthavne
LUN		5,40	2,147%	256,80	257,00	256,90		252,80	260,40	252,00	207123	12:09:07	DK0010287234	Lundbeck
MAERSK A		-100,00	-0,849%	11680,00	11690,00	11680,00		11810,00	11880,00	11680,00	3216	12:08:41	DK0010244425	A.P. Møller - Mærsk A
MAERSK B		-200,00	-1,556%	12650,00	12655,00	12650,00		12900,00	12900,00	12640,00	14955	12:09:05	DK0010244508	A.P. Møller - Mærsk B
NDA DK		0,07	0,134%	52,48	52,50	52,50		52,47	52,55	52,28	395666	12:01:41	FI4000297767	Nordea Bank Abp
NETC		2,50	0,420%	598,00	599,00	598,00		595,00	599,50	591,50	24905	12:07:59	DK0060952919	Netcompany Group
NOVO B		3,80	0,845%	453,35	453,45	453,40		452,25	457,90	452,00	962001	12:09:08	DK0060534915	Novo Nordisk B
NZYM B		0,70	0,173%	404,70	404,80	404,70		404,00	406,30	399,70	97752	12:06:46	DK0060336014	Novozymes B
ORSTED		-5,00	-0,483%	1030,50	1031,00	1031,00		1071,00	1071,00	1024,00	265585	12:09:06	DK0060094928	Ørsted
OSSR		0,40	0,894%	44,90	45,10	45,15		44,75	45,15	44,65	1526	11:15:45	IS0000000040	Össur
PNDORA		-4,60	-0,738%	618,40	618,80	618,60		623,40	623,80	608,00	73358	12:08:23	DK0060252690	Pandora
RBREW		3,60	0,573%	631,80	632,20	631,80		628,00	634,00	625,80	13372	12:09:03	DK0060634707	Royal UNIBREW
RILBA		1,00	0,168%	596,00	597,00	597,00		598,00	598,00	595,00	3654	11:27:44	DK0060854669	Ringkjøbing Landbobank
ROCK A		35,00	1,683%	2105,00	2115,00	2115,00		2080,00	2125,00	2080,00	691	12:06:52	DK0010219070	Rockwool Int. A
ROCK B		36,00	1,594%	2292,00	2294,00	2294,00		2256,00	2320,00	2244,00	33448	12:09:02	DK0010219153	Rockwool Int. B
SCHO		6,00	0,976%	621,00	622,00	621,00		618,00	623,00	615,00	2431	12:01:49	DK0010253921	Schouw & Co.
SIM		4,00	0,493%	815,00	816,00	815,50		811,50	831,00	811,50	35022	12:06:49	DK0060495240	SimCorp
SPNO		1,00	1,645%	61,70	61,80	61,80		61,00	61,90	61,00	93131	12:09:16	DK0060036564	Spar Nord Bank
STG		0,00	0,000%	116,70	116,80	116,80		117,30	117,90	116,40	31922	12:06:07	DK0060696300	Scandinavian Tobacco Group
SYDB		0,40	0,301%	133,40	133,60	133,50		133,20	133,80	132,80	26798	12:09:01	DK0010311471	Sydbank
TOP		3,60	1,233%	295,40	295,80	295,60		295,00	298,00	294,80	38793	12:06:49	DK0060477503	Topdanmark
TRYG		2,10	1,066%	199,00	199,20	199,10		197,80	199,30	197,80	85304	12:07:59	DK0060636678	Tryg
VWS		-11,50	-0,885%	1288,00	1289,00	1288,50		1320,00	1325,50	1282,00	311971	12:09:11	DK0010268606	Vestas Wind Systems
ZEAL		0,40	0,194%	206,80	207,00	206,80		206,40	208,40	205,00	36198	12:08:49	DK0060257814	Zealand Pharma
BAVA		8,40	3,395%	255,40	255,80	255,80		249,80	257,40	249,40	309779	12:09:11	DK0015998017	Bavarian Nordic
BNORDIK CSE		1,50	0,968%	157,50	160,00	156,50		156,00	160,00	156,00	2797	11:49:49	FO0000000088	BankNordik
BO		1,50	4,089%	38,10	38,20	38,18		36,70	38,44	36,52	385066	12:08:45	DK0010218429	Bang & Olufsen
BOOZT DKK		1,60	1,132%	142,20	143,00	143,00		141,40	143,60	140,20	26842	12:05:22	SE0009888738	Boozt
CBRAIN		-0,50	-0,219%	227,50	228,00	227,50		230,00	230,50	225,50	14726	12:00:32	DK0060030286	CBRAIN
CHEMM		6,00	0,912%	662,00	664,00	664,00		666,00	676,00	658,00	46019	12:02:17	DK0060055861	ChemoMetec
COLUM		0,00	0,000%	13,06	13,16	13,18		13,16	13,18	12,94	43380	11:52:55	DK0010268366	Columbus
DAB		0,20	2,433%	8,42	8,50	8,42		8,40	8,64	8,40	45901	12:01:57	DK0060299063	Danske Andelskassers Bank
DNORD		-0,20	-0,172%	116,00	116,40	116,20		117,00	117,20	115,80	16247	12:04:22	DK0060083210	D/S Norden
GABR		-15,00	-2,308%	635,00	640,00	635,00		645,00	645,00	635,00	427	11:41:58	DK0060124691	Gabriel Holding
HART		0,00	0,000%	512,00	516,00	512,00		516,00	516,00	512,00	4	11:16:46	DK0010256197	Brdr.Hartmann
HH		9,60	6,548%	156,00	156,20	156,20		144,20	156,80	144,20	69683	12:08:30	DK0015202451	H+H International
HUSCO		0,20	0,153%	130,00	130,80	130,80		128,00	131,80	128,00	1176	11:07:56	DK0061412855	HusCompagniet
JUTBK		-2,00	-0,980%	202,00	204,00	202,00		204,00	204,00	202,00	268	11:33:54	DK0060050045	Jutlander Bank
LASP		-	-	500,00	505,00	-		-	-	-	-	-	DK0010201532	Lån og Spar Bank
MATAS		1,00	1,236%	81,70	81,90	81,90		81,50	81,90	81,20	60068	12:05:11	DK0060497295	Matas
NKT		7,40	2,864%	265,40	266,00	265,80		259,80	268,20	259,00	68323	12:08:57	DK0010287663	NKT
NLFSK		1,20	0,873%	138,40	139,00	138,60		137,20	138,60	136,20	51204	12:08:09	DK0060907293	Nilfisk Holding
NNIT		1,20	1,115%	108,40	108,80	108,80		106,40	109,00	106,40	9292	12:00:54	DK0060580512	NNIT
NTG		7,00	3,182%	225,00	227,00	227,00		220,00	227,00	220,00	6318	12:05:27	DK0061141215	NTG Nordic Transport Group
ORPHA		0,00	0,000%	79,10	79,30	79,10		79,40	79,40	79,00	39471	12:05:34	DK0060910917	Orphazyme
PAAL B		2,50	0,893%	282,00	283,00	282,50		280,00	283,00	280,00	2467	12:07:55	DK0060700516	Per Aarsleff Holding B
RTX		4,00	2,128%	191,50	193,50	192,00		188,00	195,00	188,00	5083	12:05:17	DK0010267129	RTX
SAS DKK		0,002	0,159%	1,254	1,257	1,257		1,261	1,261	1,232	6338994	12:08:51	SE0003366871	SAS
SOLAR B		12,00	2,752%	447,50	448,00	448,00		436,00	450,00	435,75	19071	12:07:08	DK0010274844	Solar B
SPG		-4,00	-1,124%	349,00	353,00	352,00		357,00	357,00	347,00	1694	11:54:57	DK0061027356	SP Group
SPKSJF		0,00	0,000%	99,60	100,00	100,00		100,00	100,50	100,00	4358	11:54:27	DK0060670776	Sparekassen Sjælland-Fyn
TCM		-1,00	-0,664%	149,50	150,00	149,50		149,00	150,00	149,00	325	11:55:39	DK0060915478	TCM Group
TIV		2,00	0,280%	714,00	716,00	716,00		710,00	716,00	710,00	222	11:57:22	DK0060726743	Tivoli A/S
TRMD A		-0,70	-1,418%	48,55	48,65	48,65		49,50	49,70	48,30	81291	12:03:02	GB00BZ3CNK81	TORM A
UIE		-5,00	-0,322%	1540,00	1560,00	1550,00		1565,00	1575,00	1550,00	374	10:53:41	BSP951331318	United Int. Enterprises
VJBA		0,020	0,738%	2,720	2,735	2,730		2,715	2,745	2,715	372393	12:07:51	DK0010304500	Vestjysk Bank
AAB		-0,40	-0,952%	41,60	42,00	41,60		41,60	41,80	41,60	662	09:44:49	DK0060868966	AaB
AGAT		-0,015	-0,826%	1,800	1,820	1,800		1,800	1,815	1,800	26447	10:58:36	DK0010258995	Agat Ejendomme
AGF B		0,000	0,000%	0,720	0,730	0,730		0,722	0,736	0,720	1015603	12:05:41	DK0010263722	AGF B
AOJ P		-8,00	-1,120%	704,00	706,00	706,00		716,00	716,00	706,00	807	12:00:42	DK0060803831	Brdr. A & O Johansen præf.
ATHENA		-0,01	-0,271%	3,68	3,70	3,68		3,69	3,70	3,68	7027	12:07:22	DK0010240514	Athena Investments
ATLA DKK		-0,04	-0,692%	5,70	5,78	5,74		5,76	5,76	5,64	10821	11:36:41	FO000A0DN9X4	Atlantic Petroleum
BIF		0,000	0,000%	0,493	0,495	0,493		0,491	0,493	0,480	173944	11:53:42	DK0010247956	Brøndby IF
BIOPOR		0,04	0,639%	6,30	6,34	6,30		6,32	6,40	6,28	325144	12:09:13	DK0011048619	BioPorto
BLVIS A		-0,015	-0,785%	1,905	1,910	1,895		1,910	1,910	1,895	712	09:14:40	DK0061155009	Blue Vision A
BOLIGA		-0,20	-1,869%	10,50	10,60	10,50		10,80	10,80	10,40	3336	11:35:17	DK0060074656	Boliga Gruppen
CEMAT		0,006	1,579%	0,380	0,386	0,386		0,390	0,390	0,378	436143	11:44:31	DK0010271584	Cemat
CPHCAP PREF		-0,01	-0,513%	1,91	1,94	1,94		1,95	1,95	1,94	62	11:58:08	DK0060732980	Copenhagen Capital Præf
CPHCAP ST		0,02	0,495%	4,04	4,08	4,06		4,08	4,08	4,06	29800	11:02:48	DK0060093607	Copenhagen Capital Stam
DANT		-	-	300,00	310,00	-		-	-	-	-	-	DK0015205637	Dantax
DJUR		2,00	0,680%	296,00	298,00	296,00		298,00	298,00	296,00	58	11:37:00	DK0060136273	Djurslands Bank
EAC		350,00	5,109%	6700,00	7250,00	7200,00		6900,00	7200,00	6900,00	14	11:45:04	DK0061277894	EAC Invest
FED		5,00	4,274%	118,00	121,00	122,00		121,00	122,00	121,00	5	09:35:03	DK0060522746	Fast Ejendom Danmark
FFARMS		0,00	0,000%	61,00	61,60	61,60		61,60	61,60	61,20	87	11:33:34	DK0060056166	FirstFarms
FLUG B		-5,00	-0,633%	785,00	790,00	785,00		790,00	790,00	785,00	116	10:52:44	DK0010218189	Flügger group B
FYNBK		-0,50	-0,606%	82,00	83,00	82,00		82,00	82,00	82,00	326	11:27:11	DK0060520377	Fynske Bank
GERHSP		5,00	3,788%	132,00	135,00	137,00		137,00	137,00	137,00	20	10:01:32	DK0060093524	German High Street Properties
GJ		-	-	55,50	56,50	-		-	-	-	-	-	DK0010249309	Glunz & Jensen Holding
GREENM		-3,00	-1,604%	184,00	185,00	184,00		185,00	186,00	184,00	915	11:46:24	DK0060817898	GreenMobility
GRLA		5,00	0,826%	605,00	610,00	610,00		610,00	610,00	610,00	55	10:26:14	DK0010230630	Grønlandsbanken
GYLD A		-	-	4040,00	4180,00	-		-	-	-	-	-	DK0010247527	Gyldendal A
GYLD B		2,00	0,452%	444,00	448,00	444,00		442,00	444,00	442,00	98	11:02:41	DK0010247600	Gyldendal B
HARB B		0,20	0,303%	65,60	66,20	66,20		66,00	66,40	65,80	3658	12:09:09	DK0060014751	Harboes Bryggeri B
HVID		-0,50	-0,667%	75,50	76,00	74,50		75,00	75,00	74,50	749	09:52:55	DK0060135978	Hvidbjerg Bank
IMAIL		0,00	0,000%	8,75	8,90	8,75		8,75	8,75	8,75	75	10:56:26	DK0010212224	InterMail
KLEE B		-	-	2680,00	2780,00	-		-	-	-	-	-	DK0010129089	Brd. Klee B
KRE		20,00	0,581%	3440,00	3460,00	3460,00		3460,00	3460,00	3460,00	1	10:30:13	DK0010253764	Kreditbanken
LOLB		-4,00	-0,855%	464,00	468,00	464,00		468,00	468,00	464,00	143	11:01:10	DK0060000107	Lollands Bank
LUXOR B		-2,00	-0,415%	480,00	490,00	480,00		480,00	480,00	480,00	1	11:44:20	DK0010213628	Luxor B
MIGA B		-	-	266,00	268,00	-		-	-	-	-	-	DK0010225127	Migatronic B
MNBA		2,00	1,418%	143,00	144,00	143,00		142,00	144,00	142,00	1225	11:43:36	DK0060133841	Møns Bank
MTHH		1,50	0,852%	177,00	177,50	177,50		177,00	177,50	177,00	582	11:42:18	DK0010255975	MT Højgaard Holding
NEWCAP		-0,010	-2,381%	0,410	0,420	0,410		0,420	0,420	0,410	3190	10:05:04	DK0010212570	Newcap Holding
NORDIC		-0,008	-2,367%	0,336	0,338	0,330		0,340	0,340	0,330	8400	10:52:34	DK0060083996	Nordic Shipholding
NORTHM		1,80	1,833%	99,80	100,00	100,00		99,40	100,00	96,20	47407	12:08:59	DK0010270347	North Media
NRDF		-2,00	-0,943%	208,00	210,00	210,00		212,00	212,00	210,00	1800	11:51:58	DK0061295441	Nordfyns Bank
NTR B		-	-	43,00	46,00	-		-	-	-	-	-	DK0010027671	NTR Holding B
PARKEN		-0,40	-0,514%	77,40	77,80	77,40		77,20	78,20	76,80	2673	12:00:36	DK0010237643	PARKEN Sport & Entertainment
PRIMOF		2,00	0,917%	214,00	220,00	220,00		220,00	220,00	220,00	7	12:00:42	DK0060137594	Prime Office
PSNRDC A		-0,20	-1,905%	10,10	10,30	10,30		10,30	10,30	10,00	28625	10:02:27	DK0010158500	Park Street Nordicom A
RBLN B		4,50	2,507%	181,50	184,00	184,00		180,50	185,00	179,00	4774	11:37:52	DK0060485019	Roblon B
RIAS B		4,00	0,862%	462,00	468,00	468,00		464,00	468,00	464,00	505	10:13:46	DK0010125848	Rias B
ROV		15,00	19,330%	92,40	92,60	92,60		79,60	92,60	79,40	17697	11:58:05	DK0061152170	Rovsing
SANI		1,00	1,504%	67,00	67,50	67,50		66,50	67,50	66,00	776	12:00:47	DK0010245661	Sanistål
SBS		-	-	21,00	21,40	-		-	-	-	-	-	DK0060042612	Scandinavian Brake Systems
SCD		-0,05	-0,538%	9,25	9,40	9,25		9,30	9,30	9,25	594	10:13:49	DK0010305077	Small Cap Danmark
SIF		-	-	11,40	12,10	-		-	-	-	-	-	DK0010128008	Silkeborg IF Invest
SIG		0,00	0,000%	1,84	1,87	1,87		1,87	1,87	1,87	107	11:20:47	DK0060038933	Scandinavian Investment Group
SKAKO		-	-	48,80	49,30	-		-	-	-	-	-	DK0010231877	SKAKO
SKJE		0,00	0,000%	74,80	75,00	75,00		74,60	75,00	74,60	1079	12:06:20	DK0010295922	Skjern Bank
STRINV		0,010	0,980%	1,020	1,040	1,030		1,030	1,030	1,030	2000	09:00:01	DK0010271238	Strategic Investments
TOTA		-0,80	-0,879%	90,20	92,00	90,20		92,00	92,00	90,20	1001	11:38:57	DK0060082758	Totalbanken
VIPRO		0,005	0,532%	0,945	0,985	0,945		0,945	0,945	0,945	2	11:40:33	DK0015216675	Victoria Properties
ACT		-0,40	-2,500%	15,60	15,90	15,60		16,10	16,10	15,60	2393	12:00:54	DK0061414471	DecideAct
AGILC		-0,40	-1,626%	24,20	25,00	24,20		24,20	24,20	24,20	44	11:52:51	DK0060955854	Agillic
ALEFRM		-0,11	-1,950%	5,53	5,56	5,53		5,66	5,67	5,51	23179	11:51:51	DK0061407699	Alefarm Brewing
ASTGRP		-0,16	-2,454%	6,34	6,36	6,36		6,50	6,52	6,16	91882	12:06:05	DK0061155785	Astralis Group
AUDNTS		0,24	3,448%	7,05	7,20	7,20		7,21	7,22	7,12	38270	12:07:45	DK0061406618	Audientes
BACTIQ		0,00	0,000%	18,60	18,80	18,80		19,00	19,00	18,50	64682	12:08:55	DK0061417730	BactiQuant
CBM		-	-	-	1,50	-		-	-	-	-	-	GB00BD1LVD21	Cleantech Building Materials
CONFRZ		-0,002	-0,623%	0,303	0,319	0,319		0,330	0,330	0,319	9295	12:08:05	DK0060816148	Conferize
DAC		0,06	0,984%	6,10	6,16	6,16		6,24	6,24	6,16	834	11:13:12	DK0061140407	Danish Aerospace Company
DATA		-0,10	-0,800%	12,28	12,56	12,40		12,64	12,68	12,22	31748	12:00:28	DK0061408580	Dataproces Group
EGNETY		0,00	0,000%	240,00	244,00	240,00		240,00	240,00	240,00	271	12:06:45	DK0060118453	EgnsINVEST Ejd., Tyskland
ENALYZ		-0,25	-4,545%	5,30	5,45	5,25		5,25	5,25	5,25	10	11:10:59	DK0060070589	Enalyzer
ERRIA		0,00	0,000%	4,20	4,38	4,20		4,20	4,20	4,10	1625	10:13:48	DK0060101483	Erria
FASTPC		-	-	38,40	40,00	-		-	-	-	-	-	DK0060568145	FastPassCorp
FOM		0,20	0,384%	53,00	53,90	52,30		51,10	53,20	51,10	6008	11:51:15	DK0061278199	FOM Technologies
HAPPY		-	-	5,95	6,05	-		-	-	-	-	-	DK0060990414	Happy Helper
HRC		-	-	-	-	-		-	-	-	-	-	GB00BZ3CDY20	HRC World Plc
HYPE		0,10	1,198%	8,35	8,45	8,45		8,45	8,55	8,35	4951	11:11:13	DK0060989911	Hypefactors
JOBNDX		0,00	0,000%	1270,00	1280,00	1280,00		1280,00	1280,00	1280,00	1	10:36:02	DK0060088367	Jobindex
KONSOL		-1,30	-3,250%	38,70	39,60	38,70		40,00	40,50	38,70	5953	12:08:53	DK0061113511	Konsolidator
LEDIBOND		0,00	0,000%	22,85	22,95	22,85		22,85	23,00	22,85	2519	12:04:45	DK0061274529	LED iBond International
MDUNDO		0,00	0,000%	7,46	7,50	7,49		7,49	7,49	7,49	5	09:05:07	DK0061286101	Mdundo.com
MONSO		-0,10	-0,870%	11,40	11,50	11,40		11,40	11,62	11,40	6883	12:01:49	DK0061277977	Monsenso
NEXCOM		0,30	3,279%	9,15	9,45	9,45		9,35	9,65	9,05	27239	12:00:40	DK0061417144	Nexcom
NPINV		0,025	4,673%	0,545	0,560	0,560		0,545	0,560	0,545	9235	11:51:02	DK0060827269	NPinvestor.com
ODICO		0,75	6,148%	12,95	13,00	12,95		12,35	13,70	12,35	32543	11:58:18	DK0061031036	Odico
ONXEO		-0,120	-2,251%	5,230	5,290	5,210		5,200	5,340	5,160	29358	11:35:44	FR0010095596	Onxeo
PENNEO		0,20	0,293%	68,60	69,00	68,40		68,10	69,70	68,10	4539	11:12:02	DK0061283009	Penneo
SCAPE		0,05	1,025%	4,92	4,93	4,93		4,98	4,98	4,92	5489	12:06:00	DK0061114246	Scape Technologies
SHAPE		0,02	0,180%	11,04	11,20	11,14		11,36	11,36	11,00	8616	11:49:00	DK0061273125	Shape Robotics
SLXIT		0,05	0,395%	12,30	12,70	12,70		12,80	12,80	12,25	2415	10:31:53	DK0061076130	Seluxit
STENO		-1,05	-4,828%	20,60	20,70	20,70		21,30	21,40	20,05	66195	12:07:37	DK0061078425	STENOCARE
VIRO		1,00	0,641%	158,00	160,00	157,00		155,00	160,00	150,00	7033	11:57:23	DK0061030574	ViroGates
WATURU*		-	-	-	-	-		-	-	-	-	-	DK0061134780	Waturu Holding*
WIRTEK		0,60	2,256%	27,20	27,60	27,20		26,80	27,40	26,40	12837	12:06:01	DK0060040913	WIRTEK
WMA		-0,44	-3,323%	12,72	12,88	12,80		13,28	13,30	12,68	42849	12:01:31	DK0061278355	WindowMaster International
XACTC25		1,68	1,026%	165,06	165,36	165,42		163,94	165,42	163,94	28593	11:55:01	SE0011452127	XACT OMXC25