"AKO Capital LLP","ACCIONA, S.A.",,0.76,2020-08-18
"AKO Capital LLP","ACS, ACTIVIDADES DE CONSTRUCCION Y SERVICIOS, S.A.",,1.11,2020-08-19
"AKO Capital LLP","INDRA SISTEMAS, S.A.",,0.83,2020-07-17
"Egerton Capital (UK) LLP","ACCIONA, S.A.",,0.69,2020-08-10
"Marshall Wace LLP","ACS, ACTIVIDADES DE CONSTRUCCION Y SERVICIOS, S.A.",,1.29,2020-08-17
"Marshall Wace LLP","AENA, S.M.E., S.A.",,0.5,2020-08-17
"Marshall Wace LLP","CIE AUTOMOTIVE, S.A.",,0.7,2020-08-06
"Marshall Wace LLP","MELIA HOTELS INTERNATIONAL S.A.",,0.81,2020-08-19
"Marshall Wace LLP","NATURGY ENERGY GROUP, S.A.",,0.5,2020-08-12
"Marshall Wace LLP","QUABIT INMOBILIARIA, S.A.",,0.59,2020-03-02
"ELEVA CAPITAL SAS","ATRESMEDIA CORPORACION DE MEDIOS DE COMUNICACION, S.A.",,0.51,2020-06-11
"Wellington Managment Company, LLP","BANCO DE SABADELL, S.A.",,0.55,2020-08-26
"BlackRock Institutional Trust Company, National Association","BANCO DE SABADELL, S.A.",,0.59,2020-08-26
"AQR Capital Management, LLC","BANKINTER, S.A.",,0.5,2020-08-25
"AQR Capital Management, LLC","CELLNEX TELECOM, S.A.",,0.62,2020-08-18
"AQR Capital Management, LLC","FERROVIAL, S.A.",,0.61,2020-08-14
"Citadel Europe LLP","CELLNEX TELECOM, S.A.",,0.71,2020-08-17
"Citadel Europe LLP","SACYR, S.A.",,1.65,2020-07-30
"Whitebox Advisors LLC","DISTRIBUIDORA INTERNACIONAL DE ALIMENTACION, S.A.",,0.61,2020-07-15
"JPMorgan Asset Management (UK) Limited","ENCE ENERGIA Y CELULOSA, S.A.",,1.07,2020-08-13
"Connor, Clark & Lunn Investment Management Ltd.","ENCE ENERGIA Y CELULOSA, S.A.",,0.59,2020-06-09
"Voleon Capital Management LP","INDRA SISTEMAS, S.A.",,0.59,2020-08-26
"IMMERSION CAPITAL LLP","INDRA SISTEMAS, S.A.",,2.22,2020-07-03
"Fosse Capital Partners LLP","INDRA SISTEMAS, S.A.",,0.7,2019-12-05
"Adelphi Capital LLP","MEDIASET ESPAÑA COMUNICACION, S.A.",,1.41,2020-02-12
"Citadel Advisors LLC","MELIA HOTELS INTERNATIONAL S.A.",,0.51,2020-08-24
"Systematica Investments Limited","MELIA HOTELS INTERNATIONAL S.A.",,0.5,2020-08-21
"Great Point Partners, LLC","PHARMA MAR, S.A.",,0.53,2020-07-16
"Atom Investors LP","SACYR, S.A.",,0.65,2020-03-18
"Canada Pension Plan Investment Board","TECNICAS REUNIDAS, S.A.",,0.62,2020-08-17
