[
    {
        "email": "maggern@gmail.com",
        "time": "2021-05-25 15:10:06",
        "timestamp": 1621948206,
        "source": "shortnordic.com",
        "ip": "::1",
        "subscriptions": [
            "shortnordic",
            "shorteurope",
            "spain",
            "sweden",
            "source"
        ],
        "secret": 441986626,
        "hash": "8c8abaf4a568bef2a466414162f23728"
    },
    {
        "email": "maggern@gmail.com",
        "time": "2021-05-25 15:11:14",
        "timestamp": 1621948274,
        "source": "shortnordic.com",
        "ip": "::1",
        "subscriptions": [
            "shortnordic",
            "shorteurope",
            "spain",
            "sweden",
            "source"
        ],
        "secret": 962628575,
        "hash": "8c8abaf4a568bef2a466414162f23728"
    },
    {
        "email": "maggern@gmail.com",
        "time": "2021-05-25 16:31:39",
        "timestamp": 1621953099,
        "source": "shortnordic.com",
        "ip": "::1",
        "subscriptions": [
            "shortnordic",
            "shorteurope",
            "italy",
            "spain",
            "sweden",
            "source"
        ],
        "secret": 322549804,
        "hash": "8c8abaf4a568bef2a466414162f23728"
    },
    {
        "email": "maggern@outlook.com",
        "time": "2021-05-26 16:28:26",
        "timestamp": 1622039306,
        "source": "",
        "ip": "79.161.83.75",
        "subscriptions": [
            "shortnordic",
            "shorteurope",
            "united_kingdom",
            "france",
            "italy",
            "spain",
            "sweden"
        ],
        "secret": 411721365,
        "hash": "eb335ba2b43c72160ae7f8ab1cd90a10"
    },
    {
        "email": "maggern@gmail.com",
        "time": "2021-05-31 16:23:45",
        "timestamp": 1622471025,
        "source": "shorteurope.com",
        "ip": "::1",
        "subscriptions": [
            "shortnordic",
            "shorteurope",
            "spain",
            "sweden"
        ],
        "secret": 96490933,
        "hash": "8c8abaf4a568bef2a466414162f23728"
    },
    {
        "email": "maggern@outlook.com",
        "time": "2021-05-31 16:38:18",
        "timestamp": 1622471898,
        "source": "shortnordic.com",
        "ip": "::1",
        "subscriptions": [
            "shortnordic",
            "shorteurope",
            "united_kingdom",
            "spain",
            "finland"
        ],
        "secret": 872732083,
        "hash": "eb335ba2b43c72160ae7f8ab1cd90a10"
    }
]